Sample	Group	Description	Group	File	Single_group	Single_batch
HAExp3D_BK32	Blood was drawn from a peripheral vein when people exposed to high altitude 3 days._Non_AMS_HAExp3D_BK32.gene.readscount.txt_	Blood was drawn from a peripheral vein when people exposed to high altitude 3 days.	Blood was drawn from a peripheral vein when people exposed to high altitude 3 days._Non_AMS_HAExp3D_BK32.gene.readscount.txt_	HAExp3D_BK32.gene.readscount.txt	True	False
HAExp3D_BK24	Blood was drawn from a peripheral vein when people exposed to high altitude 3 days._Non_AMS_HAExp3D_BK24.gene.readscount.txt_	Blood was drawn from a peripheral vein when people exposed to high altitude 3 days.	Blood was drawn from a peripheral vein when people exposed to high altitude 3 days._Non_AMS_HAExp3D_BK24.gene.readscount.txt_	HAExp3D_BK24.gene.readscount.txt	True	False
HAExp3D_BT4	Blood was drawn from a peripheral vein when people exposed to high altitude 3 days._Non_AMS_HAExp3D_BT4.gene.readscount.txt_	Blood was drawn from a peripheral vein when people exposed to high altitude 3 days.	Blood was drawn from a peripheral vein when people exposed to high altitude 3 days._Non_AMS_HAExp3D_BT4.gene.readscount.txt_	HAExp3D_BT4.gene.readscount.txt	True	False
HAExp3D_BT7	Blood was drawn from a peripheral vein when people exposed to high altitude 3 days._Non_AMS_HAExp3D_BT7.gene.readscount.txt_	Blood was drawn from a peripheral vein when people exposed to high altitude 3 days.	Blood was drawn from a peripheral vein when people exposed to high altitude 3 days._Non_AMS_HAExp3D_BT7.gene.readscount.txt_	HAExp3D_BT7.gene.readscount.txt	True	False
HAExp3D_BT28	Blood was drawn from a peripheral vein when people exposed to high altitude 3 days._Non_AMS_HAExp3D_BT28.gene.readscount.txt_	Blood was drawn from a peripheral vein when people exposed to high altitude 3 days.	Blood was drawn from a peripheral vein when people exposed to high altitude 3 days._Non_AMS_HAExp3D_BT28.gene.readscount.txt_	HAExp3D_BT28.gene.readscount.txt	True	False
HAExp3D_BT1	Blood was drawn from a peripheral vein when people exposed to high altitude 3 days._AMS_HAExp3D_BT1.gene.readscount.txt_	Blood was drawn from a peripheral vein when people exposed to high altitude 3 days.	Blood was drawn from a peripheral vein when people exposed to high altitude 3 days._AMS_HAExp3D_BT1.gene.readscount.txt_	HAExp3D_BT1.gene.readscount.txt	True	False
HAExp3D_BT18	Blood was drawn from a peripheral vein when people exposed to high altitude 3 days._AMS_HAExp3D_BT18.gene.readscount.txt_	Blood was drawn from a peripheral vein when people exposed to high altitude 3 days.	Blood was drawn from a peripheral vein when people exposed to high altitude 3 days._AMS_HAExp3D_BT18.gene.readscount.txt_	HAExp3D_BT18.gene.readscount.txt	True	False
HAExp3D_BK11	Blood was drawn from a peripheral vein when people exposed to high altitude 3 days. _AMS_HAExp3D_BK11.gene.readscount.txt_	Blood was drawn from a peripheral vein when people exposed to high altitude 3 days. 	Blood was drawn from a peripheral vein when people exposed to high altitude 3 days. _AMS_HAExp3D_BK11.gene.readscount.txt_	HAExp3D_BK11.gene.readscount.txt	True	False
HAExp3D_BK22	Blood was drawn from a peripheral vein when people exposed to high altitude 3 days._AMS_HAExp3D_BK22.gene.readscount.txt_	Blood was drawn from a peripheral vein when people exposed to high altitude 3 days.	Blood was drawn from a peripheral vein when people exposed to high altitude 3 days._AMS_HAExp3D_BK22.gene.readscount.txt_	HAExp3D_BK22.gene.readscount.txt	True	False
HAExp3D_BT33	Blood was drawn from a peripheral vein when people exposed to high altitude 3 days._AMS_HAExp3D_BT33.gene.readscount.txt_	Blood was drawn from a peripheral vein when people exposed to high altitude 3 days.	Blood was drawn from a peripheral vein when people exposed to high altitude 3 days._AMS_HAExp3D_BT33.gene.readscount.txt_	HAExp3D_BT33.gene.readscount.txt	True	False
HAExp3D_BT26	Blood was drawn from a peripheral vein when people exposed to high altitude 3 days._AMS_HAExp3D_BT26.gene.readscount.txt_	Blood was drawn from a peripheral vein when people exposed to high altitude 3 days.	Blood was drawn from a peripheral vein when people exposed to high altitude 3 days._AMS_HAExp3D_BT26.gene.readscount.txt_	HAExp3D_BT26.gene.readscount.txt	True	False
HAExp3D_BT29	Blood was drawn from a peripheral vein when people exposed to high altitude 3 days._AMS_HAExp3D_BT29.gene.readscount.txt_	Blood was drawn from a peripheral vein when people exposed to high altitude 3 days.	Blood was drawn from a peripheral vein when people exposed to high altitude 3 days._AMS_HAExp3D_BT29.gene.readscount.txt_	HAExp3D_BT29.gene.readscount.txt	True	False
HAExp3D_BT31	Blood was drawn from a peripheral vein when people exposed to high altitude 3 days._AMS_HAExp3D_BT31.gene.readscount.txt_	Blood was drawn from a peripheral vein when people exposed to high altitude 3 days.	Blood was drawn from a peripheral vein when people exposed to high altitude 3 days._AMS_HAExp3D_BT31.gene.readscount.txt_	HAExp3D_BT31.gene.readscount.txt	True	False
HAExp3D_BK9	Blood was drawn from a peripheral vein when people exposed to high altitude 3 days._AMS_HAExp3D_BK9.gene.readscount.txt_	Blood was drawn from a peripheral vein when people exposed to high altitude 3 days.	Blood was drawn from a peripheral vein when people exposed to high altitude 3 days._AMS_HAExp3D_BK9.gene.readscount.txt_	HAExp3D_BK9.gene.readscount.txt	True	False
HAExp3D_BK18	Blood was drawn from a peripheral vein when people exposed to high altitude 3 days. _AMS_HAExp3D_BK18.gene.readscount.txt_	Blood was drawn from a peripheral vein when people exposed to high altitude 3 days. 	Blood was drawn from a peripheral vein when people exposed to high altitude 3 days. _AMS_HAExp3D_BK18.gene.readscount.txt_	HAExp3D_BK18.gene.readscount.txt	True	False
HAExp3D_BT13		Blood was drawn from a peripheral vein when people exposed to high altitude 3 days.		HAExp3D_BT13.gene.readscount.txt	False	False
