{"name": "张老师", "title": "高级讲师", "desc": "具有多年软件开发经验，精通C、C++、C#、OC、LUA等编程语言，对Qt、Mfc等图形界面开发有深入研究，精通SQL，MYSQL等关系型数据库语言，精通cocos2D、Unity3D游戏引擎开发。授课有激情，思路清晰，认真负责，幽默风趣深受学员好评。"},
{"name": "王老师", "title": "高级讲师", "desc": "多年的软件开发经验，精通go,C,C++,Javascript,Lua等编程语言，对以太坊、智能合约有深入研究，精通MySQL,Oracle,SQLServer等关系数据库，精通beego框架网站开发,后端服务器开发。对学生负责、授课风趣。"},
{"name": "何老师", "title": "高级讲师", "desc": "15年以上的软件项目设计开发和团队管理经验。在互联网公司先后担任项目负责人和技术总监职位。精通C/C++、lua、Basic等各种编程语言，以及多种数据库。讲课深入浅出，通俗易懂！"},
{"name": "杜老师", "title": "高级讲师", "desc": "具有6年的软件开发实战经验，精通Golang、C/C++、Python、Linux系统编程。曾参与某国产企业级数据安全产品(DLP)研发，对区块链应用有深入研究，具有丰富的项目经验，授课认真负责，幽默风趣，深受学员好评。"},
{"name": "苏老师", "title": "高级讲师", "desc": "8年的Windows/Linux系统下C/C++/QT开发经验，精通C/C++/Golang。参与过中石油的数字地震队队部管理系统、保密局等政府机构国产Linux操作系统下漏洞扫描工具，安全检测平台等项目的开发。"},
{"name": "刘老师", "title": "高级讲师", "desc": "多年网络安全及密码学开发经验，服务器研发经验，曾任职国家互联网应急中心关口监测系统研发经理职位。精通Golang、C/C++程序设计，Go与区块链领域先驱者。"},
{"name": "王老师", "title": "高级讲师", "desc": "7年计算机应用开发经验，3年嵌入式应用教学经验，3年Linux系统编程经验。精通Linux操作系统和Linux环境Golang、C/C++、python、shell等主流语言，4000余堂课的教学经验，千余学员及企业工程师的培训经历。\r\n"},
{"name": "韩老师", "title": "高级讲师", "desc": "具有多年的软件开发和项目设计经验，参与和设计国家级信息系统项目的需求分析和架构设计及研发，精通C/C++和shell编程,精通网络编程和后台服务开发,精通Oracle、MySQL等主流数据库；具有丰富的授课经验，思路清晰，认真负责，深受学生好评。\r\n"},
{"name": " 邓老师", "title": "高级讲师", "desc": "多年Linux平台开发经验，在物联网方向和云服务器方向有着丰富实践经验。精通C/C++开发, 精通Linux系统、网络编程和Shell编程,精通Oracle,mysql,精通Linux平台驱动开发。教学讲解深入浅出，使学员能够做到学以致用。"},
{"name": " 梁老师", "title": "高级讲师", "desc": "5年互联网游戏工作经验，精通C++、java、python、lua编程语言，精通cocos2dx、qt、MFC框架，精通MySQL、Oracle关系型数据库，Windows/Linux开发，授课思路清晰，认真负责，甚受学生喜爱。"},
{"name": "朱老师", "title": "高级讲师", "desc": "15年以上的软件开发、大型软件项目设计和团队管理经验。精通C/C++、pascal、Basic等各种编程语言，精通MySQL、Oracle、SQLServer等关系数据库。讲课深入浅出，将复杂理论转化为通俗易懂的语言，深受学生的好评。"},
{"name": "孟老师", "title": "高级讲师", "desc": "对Hadoop、Spark、Flink等大数据体系有深入研究，有丰富的离线计算和实时计算经验。曾主导及参与空军总部装备信息化系统、国家卫星气象中心FY3C地面监测系统、用户画像系统、分布式爬虫系统、BI系统、历史数据在线查询系统、采集系统等项目的开发。"},
{"name": "曹老师", "title": "高级讲师", "desc": "阿里云大数据ACP专业认证工程师，多年大数据开发及教育培训经验，主导开发过房地产公司ERP系统、在线教育大数据分析平台、高校招生咨询大数据集成系统、电商推荐系统等项目。熟悉Java、Scala、Python等编程语言，擅长Spark、Hadoop、Flink等大数据主流技术。"},
{"name": "赵老师", "title": "高级讲师", "desc": "曾任高级大数据开发工程师，对Hadoop、Spark、flink等主流大数据框架有深入研究；负责主持开发或参与了实时、离线用户画像系统，实时音乐推荐系统，智能设备语音数据分析平台等项目。"},
{"name": "张老师", "title": "高级讲师", "desc": "多年大数据技术经验，具有多年Hadoop、Flink、HBase、kafka、Redis、Flume、Spring Cloud等一线从业经验，先后服务于上交所、上海银行、中国邮政等，参与数据中心和电商平台的大数据及JAVA EE的平台设计和具体实施。"},
{"name": "赵老师", "title": "高级讲师", "desc": "人工智能领域技术专家，多年模式识别和数据挖掘开发经验，主导研发多项国家和省级科研项目，专注ML/DL/PR/KG领域相关算法的应用，曾负责企业级信贷风控模型和智能医疗数据平台开发，对Hadoop、Spark、Tensorflow和PyTorch等大数据、人工智能技术有多年企业实践经验。\r\n"},
{"name": "赵老师", "title": "高级讲师", "desc": "从事多年爬虫与大数据开发与教学，对大数据的主流框架有着深入的理解，如hadoop、kafka、hive等，参与并主导的项目涉及分布式电商,数据爬取,离线分析等多个行业,授课逻辑严谨，条理清晰，注重学生独立解决问题的能力。\t\t"},
{"name": "闻老师", "title": "高级讲师", "desc": "高级互联网软件工程师，曾担任某物流公司CRM开发团队TL。多年大数据领域研发经验。擅长分布式开发和离线处理计算。对Hadoop、Flume、kafka、spark、ELK等大数据生态领域技术有一定的实践经验。"},
{"name": "周老师", "title": "高级讲师", "desc": "曾任IBM项目经理，主导IBM Platform KPI BI系统开发、e-support全球PMR智能调度分发系统开发；曾任国内大型中间件供应商，项目经理，主导国内最大的智能加油机供应商、大型锻造厂CRM、统一服务平台（ESB）项目研发、以及企业级BI项目。擅长Hadoop、Spark、Flink、Kylin、Druid等大数据技术有深入研究。"},
{"name": "陈老师", "title": "高级讲师", "desc": "多年大数据研发，担任过大数据工程师、项目经理、大数据架构师，曾主导企业级大数据平台建设和多项大数据项目研发，对Hadoop、HBase、Spark等大数据计算引擎深入理解以及项目实际经验。参与基于Flink的实时反欺诈风控、实时地铁故障预警等流式计算平台的设计和研发。"},
{"name": "毛老师", "title": "高级讲师", "desc": "多年大数据开发经验，主导多个项目的开发和改造工作，主要涉及政府、银行、电商等领域，精通大数据领域Hadoop、storm、kafka、flume等，有丰富的离线计算和实时经验，精通各种常见数据库，对教学认真负责，深受学生喜爱。"},
{"name": "曹老师", "title": "高级讲师", "desc": "高级大数据开发工程师，曾担任某互联网公司大数据部门TL。负责主导了多个0到1大数据平台的落地实施，并在其中担任主力研发人员。具有多年大数据领域和云平台研发经验，曾管理维护上PB级数据量的大规模集群，有海量数据的实际处理经验。精通Java、Scala、Python等多种开发语言，思维敏捷，条理清晰，授课时善于引导学生思考并培养学生解决问题的能力"},
{"name": "于老师", "title": "高级讲师", "desc": "Java企业级应用专家、WEB技术专家，中科院软件工程硕士。07年起曾主持研发过多套软件培训课程与教材，精通JAVAEE、PHP、RUBY、JavaSCRIPT、RIA等多种主流开发语言，曾主持参与过中国联通UMMS二期工程等多个大项目。"},
{"name": "李老师", "title": "高级讲师", "desc": "先后在中软、文思创新、人人网等担任过高级软件开发工程师、项目经理等职务。熟悉Java EE(JSP/Servlet、 JDBC、Struts2、Spring、Hibernate)应用开发。曾主持参与开发基于Android平台的视频点播、手机电视、无线点餐、人人网等项目。"},
{"name": "王老师", "title": "高级讲师", "desc": "北大计算机毕业，曾在中科软信息担任系统架构和设计工作，并有丰富的授课经验，精通常用算法数据结构、JavaEE相关技术，尤其是当前流行的框架技术(ibatis/Mybatis,struts1/2,spring,ajax/jquery/dwr)等。"},
{"name": "杨老师", "title": "高级讲师", "desc": "深入研究过C、C++、VB、VC等语言，后采用Java开发，数据库使用Oracle、SQLServer、MySql、熟练掌握JavaScrip、CSS、XML等技术，掌握C/S、B/S开发模式。曾开发过C/S系统，B/S模式使用JSP和Java、Struts、Hibernate等。"},
{"name": "马老师", "title": "高级讲师", "desc": "丰富项目实战经验，精通Java、JSP、Servlet、Oracle、Mysql、sqlserver等编程语言和数据库技术。对Struts1/2、Spring等流行技术框架有深入理解。曾参与项目《银行薪酬管理系统》 《亿佰商城》等的分析设计和研发。"},
{"name": "詹老师", "title": "高级讲师", "desc": "精通c/c++、oc、java、c#等语言，精通多个主流移动操作系统开发，善于研究和熟悉各种算法。多年从事iOS/Android/WinPhone项目开发。参与并带领开发多个跨平台移动项目:梦幻游戏城、滴滴打车、大姨吗、好孕妈等。"},
{"name": "安老师", "title": "高级讲师", "desc": "多年开发和教育经验，精通C/C++、Java、Python等开发语言以及MySQL、Oracle、SQLServer等数据库。对流行框架Struts1、Struts2、Hibernate、Spring、MyBatis等有深入的研究，曾参与《全国交强险平台核心系统》等多个大型软件开发项目。"},
{"name": "康老师", "title": "高级讲师", "desc": "多年开发和教学经验，精通Java、JSP、Servlet、MySQL、Oracle等编程语言和数据库系统。深入研究流行框架 Struts、Spring、Hibernate、缓存系统Redis等。在多家软件公司担任项目工程师，曾参与开发天津《物流中心货运管理系统》等。"},
{"name": "郭老师", "title": "高级讲师", "desc": "6年软件开发与教学经验，曾在北京航天四创、中科软等单位担任研发经理职务，曾主持参与浙江省机要系统、国家电网系统、济宁市医疗平台、中国电信网络规划平台、人民日报社扶贫APP的设计开发工作。精通分布式、大数据、微服务、高并发、高可用等相关技术架构。"},
{"name": "侯老师", "title": "高级讲师", "desc": "10年的一线企业开发经验，曾经在搜狐、乐视、京东等大型互联网公司担任技术负责人，擅长系统架构设计，提供整套的解决方案，对新技术比较敏感，尤其是当前流行的框架技术."},
{"name": "黄老师", "title": "高级讲师", "desc": "多年开发和教学经验，精通Java、JSP、Servlet、MySql等各种技术，\r\n熟练掌握常见流行技术框架运用，快速解决技术在项目中遇到的问题。\r\n对银行业务线各种业务有深入的研究。"},
{"name": "贾老师", "title": "高级讲师", "desc": "大连理工计算机科学与技术专业毕业，层在东软、鲁软担任项目经理和业务涉及、框架涉及及优化工作，有丰富的设计开发与业务经验。精通业务设计规划与JavaEE、Oracle等相关技术。"},
{"name": "金老师", "title": "高级讲师", "desc": "7年Java软件开发及相关教育工作，熟悉JavaEE技术体系，精通Java开发技术（HTML、JSP/Servlet、JDBC、MySQL、Redis、jQuery、SSH框架、SSM框架、dubbo、zookpeer、vue、adminLTE等）。热衷于主流Java开源框架技术，尤以擅长JavaWEB技术和框架开发，对jQuery有深入的研究。"},
{"name": "林老师", "title": "高级讲师", "desc": "北航计算机系毕业，10年Java从业经验，曾负责零售行业全业务流程系统、TMS系统、WMS系统、CRM系统、预算财务系统、微信营销活动等，近几年投入到IT培训行业中，精通Java EE、SSM、SpringCloud技术。在处理秒杀等营销活动瞬时大并发有着丰富的实战经验。"},
{"name": "芦老师", "title": "高级讲师", "desc": "具有4年开发经验和3年的教学经验,曾就职于中软,银监会等机构,具有多年开发物流系统、银行系统的经验并担任高级软件开发工程师职务, 掌握C/S、B/S开发模式，熟练掌握 javaSE、javaEE、Struts、spring、hibernate、MyBatis、SpringMVC、Oracle、MySQL、Redis、javascript、AJAX等技术。"},
{"name": "吕老师", "title": "高级讲师", "desc": "5年项目开发实战经验4年授课经验，精通Java企业平台技术、企业搜索引擎、Hadoop大数据、微服务等分布式架构，曾供职于微创、中软等多家企业，参与开发完成包括未来云教室、东福网等大型项目，授课实战性强，并将企业团队开发模式带入课堂，重视思维拓展与实践动手能力的提升。"},
{"name": "马老师", "title": "高级讲师", "desc": "多年研发与教学经验。擅长全栈开发,掌握前端、后端、移动端app与小程序开发，精通敏捷开发与微服务技术。具有丰富的电商和微服务项目经验，先后服务于北京旅途电商系统和跨境电商系统的项目开发，负责IE学院部分软硬件系统通信设计与实现,参与设计中移云客服系统研发。"},
{"name": "师老师", "title": "高级讲师", "desc": "2009年入行，多年的项目开发和教育培训经验，精通JavaEE的主流开发框架、Oracle和mysql等关系型数据库。曾在中科院遥感应用研究所、慧点科技、达利本斯等公司担任高级开发工程师、项目总监，带团队做过边防部队、人寿集团、平安集团等多个企业的大型项目，之后在互联网公司知果科技担任开发经理，完成知果果网的核心产品开发。"},
{"name": "王老师", "title": "高级讲师", "desc": "多年的软件开发和教学经验。先后担任过高级软件开发工程师、系统架构师、项目经理。具有丰富的软件开发和教学经验。曾参与的软件项目有中国国电集团费县发电厂生产管理系统、国家电网中国国能生物发电集团生产信息管理系统、国家电网潍坊电业局调度管理系统。主持并参与的软件项目有山东省滨州市房产管理局维修资金系统（工行、建行、房管局联网）、山东省潍坊市滨海开发区房管局维修资金系统、山东省滕州市建设局物业保修金系统、山东省济南市住房保障管理系统、山东省聊城市廉租住房管理系统、山东省东营市房产管理局维修资金系统等。精通Java开发技术（JSP/Servlet、JDBC、JAXP、Struts2、Hibernate3、MyBatis、Spring、JavaServerFaces、JPA），热衷于主流Java开源框架、Web开发技术和设计模式的研究。教学擅长结合现实中的例子讲解抽象的概念，授课幽默风趣。"},
{"name": "魏老师", "title": "高级讲师", "desc": "12年软件开发与项目管理经验，曾担任项目经理及高级软件开发工程师等职务，主持开发CNTV央视网的CBox项目，美空网美空通告APP项目，并于2016年合伙创办北京万象创客科技有限公司，曾参与多个互联网项目的开发，精通常用算法数据结构，熟悉分布式系统的设计和应用，熟悉分布式、缓存、消息等机制；并且有丰富的IT项目管理经验，熟悉Scrum敏捷开发流程，获得PMP认证&Scrum认证。\t"},
{"name": "许老师", "title": "高级讲师", "desc": "毕业于河北地质大学计算机系，拥有美国项目管理学会PMP认证，曾在多家公司担任高级工程师,项目组长,项目经理等职位。主持并开发可靠商城，saas云订单归集系统，猎豹商城管理系统等。熟练掌握各种数据结构以及算法，熟练使用 javaSE、javaEE常用框架、MySQL、javascript、JQuery、AJAX等技术。"},
{"name": "杨老师", "title": "高级讲师", "desc": "北京航空航天大学 计算机毕业。\r\n10年技术开发与管理经验。曾在北大方正、知名游戏公司、互联网公司等担任资深研发工程师、技术经理。\r\n参与移动聊天工具企业版、新媒体营销平台、档案信息管理系统等大型项目研发工作。\r\n擅长总结和梳理知识点，深入的对每个技术点进行讲解，引导式教学，注重培养学员能力。"},
{"name": "杨老师", "title": "高级讲师", "desc": "从事Java开发和教育10余年,参与项目涉及保险、互联网金融、酒店等行业,参与人保报案平台、人保集审平台等项目设计与开发,精通JavaSE、JavaWEB、jQuery、AJAX等技术,熟练应用SSM、SSH、MySql、solr等框架与技术。"},
{"name": "于老师", "title": "高级讲师", "desc": "多年教学和开发经验对JavaEE 技术体系结构、JavaWeb 原理有深刻理解。精通RPC、消息中间件、SSM、SpringCloud等技术，曾参与中国移动门户系统、中国移动集团客户对公平台、CRM系统、健康管理系统等。热衷于技术研究，善于用引导方式教学；授课思路清晰，注重学生基础知识掌握扎实，注重培养学生自主解决问题的能力。"},
{"name": "张老师", "title": "高级讲师", "desc": "10年企业一线开发经验，在多家企业担任高级工程师，架构师，项目经理等职位，参与或主持航信-航意险，中彩网，网上商城等项目的开发。专注于JavaEE开发，深入研究Spring全家桶、Mybatis、dobuo等流行框架，对分布式，微服务架构体系有独到的见解。"},
{"name": "张老师", "title": "高级讲师", "desc": "8年软件开发与教学经验，先后在中软国际、尚德机构和国美集团担任高级软件工程师、技术经理等职务。\r\n全程参与中国移动集团VGOP项目、尚德机构天网系统、国美集团基金项目等系统的分析设计与研发。技术功底扎实且乐于技术分享，有丰富的企业内训经验。"},
{"name": "赵老师", "title": "高级讲师", "desc": "从事JavaEE方向研发工作多年，目前致力于Java技术培训，热爱教育。深入掌握Struts、Hibernate、Spring、SpringMVC、MyBatis、EJB等主流框架,通过分析源码，讲解框架设计原理。授课细致，深入浅出，深受学生喜爱。曾参与大型互联网社交项目开发；房地产大型销售平台的研发。"},
{"name": "石老师", "title": "高级讲师", "desc": "多年软件开发和教学经验，精通Java 、SQLServer、Oracle、MySQL、JSP、Servlet等编程语言和数据库系统。深入研究流行框架 Struts、Spring、Hibernate，曾参与开发某军区医院 《OA办公系统》等多个大型项目。"},
{"name": "周老师", "title": "高级讲师", "desc": "南开大学计算机学士,十多年开发经验,多年系统分析、性能优化经验，精通互联网分布式架构设计和J2EE开发,曾在方正国际,车音网等公司任职,历任高级研发工程师、高级架构师、技术部经理,技术专家委员会成员等职位.精通Spring \\SpringMVC\\mybatis\\dubbo\\springboot\\springCloud等主流开发框架及Redis\\MQ\\Solr第三方中间件.主持开发过张家港医疗信息平台,健康门户网,长城车联网哈弗智联等多个大型互联网应用平台。"},
{"name": "许老师", "title": "高级讲师", "desc": "多年软件开发工作，历任高级软件工程师、项目经理、培训师等职务，熟练掌握 javaSE、javaEE、Struts、spring、hibernate、MyBatis、SpringMVC、Oracle、MySQL、javascript、AJAX等技术。授课思路清晰，通俗易懂。"},
{"name": "石老师", "title": "高级讲师", "desc": "具有多年开发经验,曾先后在重庆科普、微创、爱奇艺等多家软件公司担任高级软件开发工程师、项目经理等职务，熟悉Java EE(JSP/Servlet、 JDBC、Struts2、Spring、Hibernate)应用开发。 "},
{"name": "白老师", "title": "高级讲师", "desc": "10年以上项目开发及丰富授课经验，精通Java、Linux、Oracle、Mysql、html5等，对SpringMVC、Spring、Mybatis等框架有深入研究。"},
{"name": "黄老师", "title": "高级讲师", "desc": "15年+的软件开发与教学经验，参与中国联通VOP系统，中国联通在线计费系统，道路交通事故救助基金管理系统等的开发工作；\r\n拥有丰富的教学经验。"},
{"name": "刘老师", "title": "高级讲师", "desc": "5年多软件开发与教学经验，先后在大型国有企业中海纪元、维昂科技、北京大学医学史研究中心，武汉新明达信息技术等公司工作。担任架构师、技术经理、高级研发工程师等职位。"},
{"name": "苏老师", "title": "高级讲师", "desc": "8年JavaEE开发经验，4年教学经验，高级Java工程师\r\n曾参与开发了新华社新媒体运营平台、中铁二局对埃塞俄比亚城铁系统、北京西站监控系统、\r\n北京银行金融在线系统、中石油韩城煤层气项目。精通分布式、大数据、微服务、高并发、高可用等相关技术架构。"},
{"name": "孙老师", "title": "高级讲师", "desc": "从事java工作多年，有着丰富的开发和教学经验，精通SSM、dubbo，Spring Security,Spring boot等框架，能熟练操作Oracle，Mysql等关系型数据库以及Zookeeper、Lucene，JavaScript，Vue，ElementUI等技术。授课方式通俗易懂，引导式教学。"},
{"name": "魏老师", "title": "高级讲师", "desc": "从事JavaEE技术多年，拥有丰富的一线开发和教学经验。PMP认证项目经理。深入掌握MySQL、SSM框架、Spring全家桶、dubbo、zookeeper、缓存、中间件等技术，并对微服务架构体系与其他服务端端主流框架的理论与实际应用均有深入的研究。通过技术讲解既精又准、幽默风趣的授课方式教授上千名学生。"},
{"name": "杨老师", "title": "高级讲师", "desc": "15年软件开发与教学经验，具有丰富的技术团队管理经验；先后在品西互动、盈联电子、尚德机构担任研发总监、事业部总监、移动开发经理职务，先后主导社区管家、供销回收系统等项目；拥有丰富的Java教学与企业级培训经验，曾先后为中创、新华人寿、齐鲁银行等公司进行企业级Java培训。"},
{"name": "于老师", "title": "高级讲师", "desc": "5年以上开发和教育经验,授课风格：风趣幽默,深入浅出，善于与学生互动，注重实战。\r\n先后在华宇信息以及立联立动等多家大型公司担任高级开发工程师。"},
{"name": "赵老师", "title": "高级讲师", "desc": "10年从事互联网、教育、环保、医疗行业经验,专注于研究互联网技术, 分布式爬虫, 相似矩阵, 语义识别及ETL.曾研发国家十二五规划重点项目12369平台.曾设计国内某互联网金融公司大型分布式爬虫架构.曾设计国内某通讯公司语音视频通讯平台架构。"},
{"name": "郭老师", "title": "高级讲师", "desc": "多年软件开发工作，曾就职于合力亿捷电信集团、启航方舟等公司，丰富软件开发经验。曾参与过中国联通总部行业应用汇聚平台、开锁智能服务系统、灾情卫士、Fesco人力资源等系统开发，担任项目经理、高级软件工程师、高级讲师等职务。"},
{"name": "刘老师", "title": "高级讲师", "desc": "拥有6年的工作经验，从事多年软件开发和教育事业，工作期间参与完成了多个智能家居，智能健康，智能手环项目，对软件的架构和开发深刻的认识。熟悉JavaSE，JavaEE，Android相关的开发，目前主要从事JavaSE的教育工作，善于将0基础学员入门Java行业。\t\t\t\t\t\t"},
{"name": "朱老师\t", "title": "高级讲师", "desc": "具有多年技术创业经验，曾开发电商系统、电商广告系统并凭借该系统成立独立软件公司，曾为大型外贸企业规划并主导垂直B2C电商技术体系。深入了解Java虚拟机，喜欢探寻事物内在关联。具有超过五年Java教学经验，教学风格平实稳重，逐步深入。"},
{"name": "胡老师", "title": "高级讲师", "desc": "5年的工作时间，曾以技术经理身份参与《智慧树在线教育平台》《ELT进销存管理系统》等多个项目研发。"},
{"name": "李老师", "title": "高级讲师", "desc": "13年软件开发和JavaEE授课经验，精通Spring、SpringMVC、MyBatis、Spring-Data-JPA、Lucene、Solr、ElasticSearch、\r\nDubbo、SpringBoot、Redis、Zookeeper、RocketMQ、ActiveMQ、Shiro、pac4j、spring-security、JavaScript、Ajax、jQuery、vuejs、angularjs、docker、maven、等技术"},
{"name": "刘老师", "title": "高级讲师", "desc": "从事JavaEE的开发与教学18年，曾在软件开发企业担任技术总监，2012年~2015年被东软外聘为Java考评专家2015年6月出版发行《JavaEE SSH框架开发项目教程》2019年1月出版发行《JavaEE Spring MVC 与MyBatis企业开发实战》"},
{"name": "李老师", "title": "高级讲师", "desc": "6年Java开发与2年团队管理，具有丰富的技术团队管理经验，曾多次从无到有建设技术团队；先后在中经汇通、蜘点集团、华项科技担任技术经理, 开发经理, 技术主管等职务，先后主导虚拟账户、汇生活、蜘点移动、物流系统等企业级项目研发；拥有丰富的Java企业级培训经验"},
{"name": "张老师", "title": "高级讲师", "desc": "8年以上的项目经验，先后担任过高级软件工程师，软件系统架构师，项目经理等职位。曾主导或参与电信行业CRM、增值业务、BI以及电子政务、企业ERP等项目，具体的工程项目有：移动12580/联通114，移动10086/电信10000等。\r\n"},
{"name": "田老师", "title": "高级讲师", "desc": "有5年的丰富工作经验，项目经验：河北省工商管理局登记系统、油田内部员工办公系统；授课范围：javase+mysql数据库+前端"},
{"name": "殷老师", "title": "高级讲师", "desc": "5年软件开发经验，精通Java，MySQL，Servlet/JSP，JavaScript，jQuery，BootStrap，LayUI。深入掌握SpringMVC，Spring，MyBatis等框架。曾就职于河南、上海等多家知名互联网公司，担任系统研发工作。曾独立设计、搭建以及参与多个项目研发。"},
{"name": "张老师", "title": "高级讲师", "desc": "从事十年大型互联网软件开发和教学工作，具有丰富的软件开发和项目管理经验，精通Java 、Swift、Python等语言，曾主导并参与多个大型项目，包括W3Mobile华为协同办公平台，迪士尼蓝牙点读笔等；具有丰富的教学经验，授课思路清晰，风趣幽默，通俗易懂。"},
{"name": "姜老师", "title": "高级讲师", "desc": "精通JavaEE技术体系、PHP、JavaScript、RIA 等主流开发语言。先后担任过高级软件开发工程师、项目经理、系统架构师，丰富软件开发和教学经验。 曾参与中国国电集团万盛电厂、黑龙江网通考试系统、神舟航天AVDIM平台设计研发等。"},
{"name": "饶老师", "title": "高级讲师", "desc": "JavaEE开发与教学多年，精通JavaEE技术体系，对流程SSH,SSM以及潮流的SpringData、SpringCloud、Docker等技术有深入的研究。授课逻辑严谨、条理清晰，注重学生独立解决问题的能力，善于总结一类问题，启发式教学。"},
{"name": "潘老师", "title": "高级讲师", "desc": "10年开发和多年教学经验，精通JavaEE，iOS，Android等编程语言。对流行框架 · JQuery、Struts1/2，Hibernate，Spring，MyBatis、SpringMVC等有深入研究。参与过建设银行项目，企业ERP系统等开发工作。授课思路清晰，幽默风趣，通俗易懂。\r\n"},
{"name": "钟老师", "title": "高级讲师", "desc": "多年教学与开发经验，专注javaEE开发，精通javaSE,JSP，Servlet、JDBC、Struts1/2、Spring、Hibernate等。曾参与主持开发太平洋二手车网、大型网站用户行为分析系统、公司客户管理系统等项目。"},
{"name": "梁老师", "title": "高级讲师", "desc": "精通Java、SQL Server、MySql、JSP等语言和数据库系统，深入掌握struts、hibernate、spring、JSF等框架。先后在炎黄盈动等企业担任过技术经理、项目经理、高级讲师等。先后主持开发BPM系统、商业购物系统、CUM与BPM接口系统等。"},
{"name": "刘老师", "title": "高级讲师", "desc": "多年移动互联网产品设计和开发经验，任职普信恒业期间，带团队设计开发了目前十分火热的移动互联网金融产品《掌钱宝》。任职风语者期间，带团队设计开发了《移动公证》《风语语音导游》《风语者》《S-China》《中译通》《找翻译》等众多热门应用。"},
{"name": "崔老师", "title": "高级讲师", "desc": "从事多年Java软件开发及相关教育工作，熟悉 javaSE，javaEE，Struts1,2，spring，hibernate，Oracle，SQLServer，MySQL，javascript，AJAX。曾在多家公司担任项目工程师，项目经理职务。"},
{"name": "赵老师", "title": "高级讲师", "desc": "近十年互联网软件开发和教学经验，擅长JavaSE、JavaScript、Ajax、JQuery、DWR、JSP，Servlet、JDBC、Struts1/2、Spring、Hibernate、PHP，C#等开发技术。以独特的风格和教学精神影响着学员们。"},
{"name": "徐老师", "title": "高级讲师", "desc": "12年行业经验，多年丰富项目实战经验，精通Java语言，大型微服务架构，有丰富的高可用，高性能开发和调优经验，擅长互联网项目实战。负责整体架构、会员体系建设。崇向工匠精神，追求精益求精的做事理念，工作经验丰富，多才多艺幽默又有耐心。"},
{"name": "关老师", "title": "高级讲师", "desc": "10年以上软件架构设计与开发经验，具有丰富的技术团队管理经验，曾多次从无到有搭建角色完善的技术团队；先后在深圳脸谱科技，外贸圈，金穗电子，先后主导过彩票业务，外贸人才，房屋租赁研发，在阿里云栖Java高级进阶中有过技术分享和讲解。"},
{"name": "杨老师", "title": "高级讲师", "desc": "10年软件开发与教学经验，资深软件工程师，项目经理。曾主导参与项目：广东电网营配一体化、综合停电、联通沃音乐门户、南度度节能网、湖南电信综合网管、湖南电信端到端健康度评分大数据分析平台等项目。精通企业级J2EE应用体系，hadoop/spark大数据平台与生态环境。\r\n"},
{"name": "时老师", "title": "高级讲师", "desc": "7年教学与开发经验，专注javaEE开发，精通:Struts2、Spring、Mybatis、SpringMVC等开发框架，MySQL、SQLSERVER 、Oracle数据库系统。曾参与多个电子商务,物流项目的开发。\r\n授课风格：由浅入深，思路清晰，通俗易懂。"},
{"name": "方老师", "title": "高级讲师", "desc": "8年+互联网行业工作经验，历任系统架构师、产品经理、项目经理等职位，\r\n曾主导研发《南方基金财务控制系统》、《华数TV移动平台》、《微笑妈咪》、《别吃胖》、《销售推》等项目，\r\n从业经验涉及移动办公、电商、视频多媒体、医疗、微信生态等互联网行业"},
{"name": "赵老师", "title": "高级讲师", "desc": "12年软件开发与教学经验，具有丰富的技术团队管理经验，精通Java EE(JSPServlet、 JDBC、Struts2、Spring、Hibernate、mybaits)，以及 WebService,Ajax，Oracle，DB2，MySQL，NoSql、分布式RPC框架Dubbo、SpringCloud、Zookeeper、MQ、Redis等。曾先后参与江苏媒资系统、中信银行大客户对公平台、胜利油田办公自动化平台、武警部队信息化系统的研发和管理工作。"},
{"name": "杜老师", "title": "高级讲师", "desc": "15年软件开发与教学经验，熟练掌握 mysql、redis,ssm框架、dubbo、zookeeper、springboot、springcloud等技术,主持与参与过市级财务系统，工会宣传，企业管理等系统开发。熟悉分布式技术，了解微服务架构，具备多个行业项目产品开发与管理经验，对培训有深刻的理解和把握。"},
{"name": "栾老师", "title": "高级讲师", "desc": "国内云计算软件研发先驱，是SaaS中小企业长尾理论的第一批实践者。如：云计算(SaaS)项目HiService-CRM,HiService-SCM，涉及用户包含保利、歌华有线等。擅长：javaSE/EE及常用开源框架、自定义框架开发与使用、Oracle与SQLServer等。"},
{"name": "刘老师", "title": "高级讲师", "desc": "精通JavaEE技术体系、Android、JavaScript、深入掌握struts、hibernate、spring、springmvc, mybatis等技术框架。先后任职于李宁、聚齐、清华同方等多家公司。授课风格：授课风趣幽默，深入浅出。"},
{"name": "唐老师", "title": "高级讲师", "desc": "丰富的IT培训教学经验，精通Java开发技术（JSP/Servlet、JDBC、JAXP、Struts2、Hibernate3、Spring、JPA），热衷主流Java开源框架，曾参与中国电信计费系统、银行自动服务后台操作系统等。"},
{"name": "苗老师", "title": "高级讲师", "desc": "10多年开发经验，历任架构师、项目经理等职位，曾主持开发《全国党员远程教育网络管理系统》《辽宁省全网时钟同步监控系统》《郑州地铁CCTV网管系统》《江苏开放大学教务管理系统》《百姓数据网》等项目。"},
{"name": "徐老师", "title": "高级讲师", "desc": "12年软件开发及教学经验。曾任汇丰(广州)软件研发中心项目经理，主导开发了汇丰银行在日本、新加坡、悉尼等国家的证券交易清算系统，精通WebSphere MQ/Broker/Transaction等企业级中间件平台的架构设计。"},
{"name": "张老师", "title": "高级讲师", "desc": "10年以上开发以及教育经验，参与过大型的电子商务购物平台、中国电信在线营业厅等项目的开发，在我友科技、杭州数云信息技术担任开发经理职位。曾参与项目：《NewBI》《我友商城》《中国电信套餐直通车》等。\r\n"},
{"name": "张老师", "title": "高级讲师", "desc": "曾在多家公司担任过高级工程师，技术部经理等工作。在中科院自动化研究所任职期间，参加了国家863计划《信息技术领域高融合度增强现实技术及系统项目》。精通Java技术和主流的关系型数据库。对JavaEE核心以及SSH框架也有较深入的研究。"},
{"name": "王老师", "title": "高级讲师", "desc": "拥有丰富的教学经验,擅长JavaEE项目的研究与教学,有丰富的行业知识, 用最简洁的方式讲解JavaEE方向的课程。擅长JavaWeb,MySql等课程的讲解，曾经参与山西省财政厅财政实物管理系统,同煤集团隐患排查管理系统的开发等项目。"},
{"name": "陈老师", "title": "高级讲师", "desc": "精通Java、C、Android等技术体系，深入掌握struts、hibernate、 spring、springmvc, mybatis等技术框架。曾参与《客户关系管理系统》、《信贷系统》、《报表系统》等软件的项目分析设计及研发。"},
{"name": "娄老师", "title": "高级讲师", "desc": "19年软件开发及教学经验，先后在国内IT名企担任高级软件开发工程师、项目经理、系统架构师、技术总监等职务。精通dubbo  、spring cloud等分布式架构技术以及vue.js等前端框架，曾主导几十个企业级项目的研发，涉及的领域有电子商务、电子政务、erp等企业级应用。"},
{"name": "惠老师", "title": "高级讲师", "desc": "多年互联网金融行业开发经验,曾在多家公司担任高级软件开发工程师，能够灵活的运用多种技术完成相关业务的开发工作。熟悉javaSe 、 SSH、SpringMVC、myBatis、ExtJs、dubbo、MySql等多种技术。"},
{"name": "刘老师", "title": "高级讲师", "desc": "具有丰富软件开发和教学经验，精通Java开发技术（JSP/Servlet、JDBC、JAXP、 Struts2、Hibernate3、Spring等），热衷于主流Java开源框架、Web开发技术。代表软件/项目有《中国南车集团OA》等。"},
{"name": "谈老师", "title": "高级讲师", "desc": "具有丰富的软件开发和教学经验，精通Java，Android，大数据开发技术，热衷于研究主流Java开源框架、Web开发技术。擅长JavaSE研究与教学，有丰富的行业知识、教学经验。上课案例丰富有趣，把Java知识点和生活相结合，让学员产生浓厚的学习兴趣。"},
{"name": "张老师", "title": "高级讲师", "desc": "多年教学开发经验，曾翻译多本外文著作； 曾先后就职于空中网、英特尔中国研究院，讲课言简意赅，讲干货， 授课接地气。 尤其擅长j2ee技术栈中的流行框架 SpringMVC,Spring, MyBatis常见的服务器中间件 Tomcat, ElasticSearch , Oracle, Mysql 数据库等。"},
{"name": "谭老师", "title": "高级讲师", "desc": "高级移动互联网软件工程师，涉足Java、Android、iOS等平台，曾参与当时国内最强的移动端自动化性能测试项目BMPT研发，曾主导研发k12教育业行内前沿项目ICS系统。学生评价：耐心负责，上课风趣幽默，有激情。"},
{"name": "李老师", "title": "高级讲师", "desc": "拥有多年软件开发和it培训经验，擅长javase，javaee，javascript，mysql，oracle数据库，Android等，深入研究ssh和ssm等框架，曾在上市公司担任高级研发工程师，技术经理等职位。"},
{"name": "彭老师", "title": "高级讲师", "desc": "多年教学与开发经验，精通javaSE,JSP，Servlet，JDBC，MySQL，javaScript,Jquery等。先后担任过高级开发工程师，项目经理，曾开发过物流系统、电商网站等不同类型软件，有着比较丰富的开发经验，同时具有丰富的教学经验，授课认真负责。\r\n"},
{"name": "叶老师", "title": "高级讲师", "desc": "精通Oracle, DB2, MySql等数据库使用，深入掌握SSM, Apache Shiro, SpringSecurity等框架，熟练使用jquery, vue, Ext等前端框架。曾就职于联想信息产品（深圳）有限公司研发实验室，从事Think产品研发系统的开发与维护。"},
{"name": "杨老师", "title": "高级讲师", "desc": "从事多年Java软件开发及相关教育工作，熟悉 javaSE，Android，javaEE，Struts1,2，spring，hibernate，Oracle，MySQL，javascript，AJAX等。曾在多家公司担任项目工程师，曾参与军事级加密通话软件等软件的开发。"},
{"name": "王老师", "title": "高级讲师", "desc": "多年开发经验, 曾就职于北京中软国际信息技术有限公司、北京图为先科技有限公司、北京四维图新科技股份有限公司，精通JavaSE，JavaEE和Android开发。参与过国家电网电子商务平台，图吧地图导航等项目的开发工作。授课循序渐进，认真负责，幽默风趣。"},
{"name": "白老师", "title": "高级讲师", "desc": "12年java开发经验，曾在北京凯淞科技、北京软通动力、内蒙古泰德科技、武汉佰钧诚、用友网络等公司工作过；担任过项目组长、项目经理、架构师等职位。参与完成的项目有： 中外运空港物流项目SINOAIR、华为全球行政采购项目IPTP、中建建筑互联网开放平台等。"},
{"name": "陈老师", "title": "高级讲师", "desc": "多年软件开发以及培训授课经验，精通C语言、Java、 MySQL oracle 数据库等;\r\n参与开发移动OA办公项目，指导外勤云管家后台服务开发，黄金矿工游戏开发，kuro音乐盒项目等；受聘到多所高校任教；上课风格百变，课堂形象生动，直击核心要点。\r\n"},
{"name": "陈老师", "title": "高级讲师", "desc": "9年Java开发经验，曾任职于武汉联邦创新软件公司、北京合力拓展信息技术有限公司、襄阳大气软件科技有限公司；曾主导完成GCMS系统项目中的算费缴费子系统的设计开发、百世开利BOSS平台、新农合医疗报销结算系统、襄阳铁路公安鹰眼系统等项目。"},
{"name": "陈老师", "title": "高级讲师", "desc": "多年的软件开发与管理经验，曾参与大型ERP POS CRM SAAS等系统研发工作；熟练掌握多种Java企业级开发应用框架、擅长分布式系统的设计和应用。\r\n授课风格：简洁明快、清晰透彻、通俗易懂、善于将理论与实践结合，专注于引领学员思路，培养学员实战能力。"},
{"name": "冯老师", "title": "高级讲师", "desc": "多年的项目开发和面授教学经验，先后开发过OA、财务、大型电商等不同类型软件，对JavaWeb、SSM框架、SSH框架 、项目实战等，有着比较丰富的授课经验。教学理念：以人为本，启发式教学。"},
{"name": "谷老师", "title": "高级讲师", "desc": "五年开发经验，曾任职于北京益泰金网有限责任公司、北京华鑫杰瑞计算机系统工程有限公司、北京金禾天成科技有限公司；曾担任项目经理等职务；期间为江苏工行，中国联通社区，银监会等公司提供项目服务；\r\n曾获的上海市科学技术奖三等奖、农业部科学技术奖进步奖。"},
{"name": "江老师", "title": "高级讲师", "desc": "五年开发经验，曾就职于北京中科软科技有限公司，担任过项目组长、项目经理等职位；参与过甲流信息采集系统，卫生部的信息化建设收集系统，卫生部的中心合同管理系统，在线教育管理平台等项目。授课逻辑严谨，条理清晰，语言风趣，注重学生独立解决问题的能力。"},
{"name": "刘老师", "title": "高级讲师", "desc": "曾任Mbp集团研发一部高级软件工程师，6年项目经验。曾参与日本某公司网上商城（jsp + struts2 + spring + DBFlute）研发，类似京东商城；物联网监管平台（建设工程质量检测全过程系统）等。讲课细致入微，善于与学生互动，话语通俗，一针见血，发人深省。"},
{"name": "柳老师", "title": "高级讲师", "desc": "6年Java开发经验、3年Java教学经验，曾参与湖北纳税服务平台、中国移动客户服务平台、中国移动网状网BOSS系统、江西移动掌上营业厅等大型项目，在项目组内担任重要角色。\r\n转战培训行业以来，以幽默风趣的教学风格深受学员喜爱，同时擅长引导式教学，注重培养学员能力。"},
{"name": "卢老师", "title": "高级讲师", "desc": "多年Java软件开发及相关教育工作，熟悉 javaEE，Struts2，spring，springmvc，hibernate，Oracle，SQLServer，MySQL，javascript,Jquery。曾参与深圳图灵智能机器人控制系统，深圳图灵科技有限公司官网,智能家居控制系统，上海住房公积金管理平台等项目。"},
{"name": "陆老师", "title": "高级讲师", "desc": "拥有多年开发和教学经验，精通JavaEE领域编程语言。\r\n深入研究流行框架 SpringMVC、Spring、Hibernate、MyBatis、缓存系统Redis等。\r\n教学擅长理论与实际相结合，对复杂简单化。\r\n曾参与研发大型项目《万达慧云系统》、《建筑需求响应运营管理系统》等。"},
{"name": "王老师", "title": "高级讲师", "desc": "十年教育培训及软件开发经验， 熟悉Java技术体系、Android、SSH、SpringMVC、myBatis：曾任职于用友科技、百纳信息技术有限公司，担任高级软件开发工程师，曾参与大唐电信云服务学习平台、新华瑞德云服务、FansPhone移动终端与云服务解决方案等项目。"},
{"name": "王老师", "title": "高级讲师", "desc": "多年软件开发及项目管理经验，精通JAVA、PHP、C++等编程语言;先后在北京K2地产、由米定制等企业担任开发及管理工作；精通struts2、spring、hibernate、springmvc、mybatis等常用框架;对oralce,mysql,redis,mongoDB等数据库技术有深入研究。\r\n"},
{"name": "王老师", "title": "高级讲师", "desc": "多年的Java软件开发经验，精通Java、Web前端、C语言、MySql数据库等。曾就职于海派通讯北京研发中心参与联想手机系统的定制工作，在深圳华南城网主导逛市场APP的研发工作等。\r\n在传智播客有3年的JavaEE教学经验，授课风格平稳、流畅、思路清晰。"},
{"name": "王老师", "title": "高级讲师", "desc": "六年开发经验，从事过游戏开发，j2ee企业开发，android和j2me手机应用开发。擅长j2ee企业开发，android应用开发，熟悉mmo rpg游戏开发技术。三年教学经验，能站在学生角度教课，幽默风趣，条理清晰 ，深入浅出。"},
{"name": "夏老师", "title": "高级讲师", "desc": "多年的JavaEE和android软件开发经验，开发六度、考研网APP、等多个android应用，并主导设计多个产品的设计与研发，精通Java语言体系结构。熟悉web，前端技术，数据库MySQL等技术。\r\n丰富的教学经验和相应的教学方式，以有趣的案例，与生活紧密的事件来驱动学习。"},
{"name": "张老师", "title": "高级讲师", "desc": "十几年互联网开发和教学经验，精通Java、Android、Oracle、MySql、JSP等技术；深入掌握struts、hibernate、spring、mybatis、springboot等框架。曾参与武汉电信代理商管理系统、湖北移动无线城市管理系统、移动无线城市android客户端等项目的管理与开发。"},
{"name": "周老师", "title": "高级讲师", "desc": " 2015年加入黑马，精通Servlet、JSP、JavaMail、JDBC、JMS、WebService、Struts2、Spring、SpringMVC框架、mybatis等技术；精通mysql、oracle数据库，tomcat、JBoss等服务器的搭建和部署。在中软等企业从事大型web项目的设计开发多年，曾任项目经理等职位。"},
{"name": "朱老师", "title": "高级讲师", "desc": "多年教学与开发经验，专注于javaEE开发以及大数据分析。对微服务平台架构有深入了解，平台架构经验丰富。曾主持视频结构化智能分析平台系统架构、车综系统平台架构、宜昌地方旅游网平台架构等项目。授课逻辑严谨，注重学员消化吸收，注重学员独立分析能力以及动手能力。"},
{"name": "陈老师", "title": "高级讲师", "desc": "中共党员，十年开发经验，历任高级软件工程师、项目经理、技术总监，曾先后就职于广电银通、华为科技、IBM、杰赛科技。具备国家高级信息系统项目管理师、大数据分析师资质。曾撰写的专利十余个，技术上有追求、有热情，是一位有责任心、有爱心、有匠心的讲师。"},
{"name": "廖老师", "title": "高级讲师", "desc": "13年软件开发管理与教学经验；资深软件与大数据开发认证工程师，项目经理。曾任职于多家互联网软件开发公司；在近几十个大中小型系统中担任软件开发工程师和项目负责人。熟悉J2EE、大数据生态技术等知识体系。"},
{"name": "潘老师", "title": "高级讲师", "desc": "十余年的软件开发以多年教学经验，精通JavaEE，iOS，Android等编程语言。对流行框架 · JQuery、Struts1/2，Hibernate，Spring，MyBatis、SpringMVC等有深入研究。参与过建设银行项目，企业ERP系统等开发工作。授课思路清晰，幽默风趣，通俗易懂。"},
{"name": "宋老师", "title": "高级讲师", "desc": "10年软件开发与教学经验，曾在用友网络担任高级开发顾问、项目开发经理、项目总监等职务，先后主导过佛山美的集团智能专门店O2O互联网系统应用、白云国际机场商旅电子商务B2C系统应用、广东省物资集团供应链管理系统应用项目开发和深圳民太安公估保险移动互联网化应用等企业级项目研发"},
{"name": "徐老师", "title": "高级讲师", "desc": "8年Java从业经验，曾负责安防视频监控系统、华为VMS语言邮箱系统、电信网络质量监控系统、溯源APP应用等开发。精通Java EE，SSM/SSH、Spring全家桶技术。对Andorid、NoSQL、消息队列、服务集成、流程引擎、微服务、持续集成及各种开源技术有着深厚的研究。\r\n"},
{"name": "袁老师", "title": "高级讲师", "desc": "多年项目开发经验，曾在几个大型公司担任系统架构师，参与负责的系统有广东移动手机病毒多维度侦测系统的架构设计、核心模块的开发及系统优化等。曾参与研发《中国电信运营商管理系统》，《韶关社保通》、《智能网系统四期》、《增值业务多维度保障系统》等项目。"},
{"name": "辛老师", "title": "高级讲师", "desc": "多年软件研发与项目管理经验，曾先后担任过项目经理、架构师、CTO等职位。\r\n主导研发超过6个以上大型项目与平台。精通JavaEE相关技术，尤其是当前流行的框架技术(SSM,SSH,Dubbo,Solr,\r\nFastDFS,FreeMarker,SpringBoot,SpringCloud)等。\r\n"},
{"name": "刘老师", "title": "高级讲师", "desc": "多年项目实战经验，在多家企业担任项目工程师，涉及能源、金融、兵工、航天、通信等多个领域，参与设计和研发《中石油油气管道建设全生命周期管理项目》、报表产品《CI》等。熟悉JavaSE、JavaEE、缓存Redis、MySql、Oracle、SSH、ExtJS、工作流、数据报表等。"},
{"name": "刘老师", "title": "高级讲师", "desc": "具有多年JAVAEE的开发经验,精通java编程,深入研究spring、mybatis、springcloud 等开源框架,曾参与华为产品线管理平台的研发工作,曾参与研发某互联网公司资源搜索服务平台。"},
{"name": "刘老师", "title": "高级讲师", "desc": "10年以上资深软件工程师，对计算机软件市场、软件开发有着深刻的认识和体验，精通Java，JSP，Servlet开发，熟练使用MySQL，Oracle，MSSqlServer，DB2等主流数据库开发，开发框架包括Struts1，Struts2，Hibernate，Spring，SpringMVC，\r\nMyBatis等。"},
{"name": "沈老师", "title": "高级讲师", "desc": "精通SQL Server、MySql、Oracle等数据库,深入掌握struts、hibernate、spring等开发框架，熟练使用JqueryEasyUI、Ext等前端技术的开发。参与过《北京市人口基础信息服务系统》等十多个项目的研发。"},
{"name": "余老师", "title": "高级讲师", "desc": "多年javaee和Android教学与开发经验. \r\n精通javaee技术体系和Android体系架构.\r\n对主流框架ssh,ssm,springboot,springcloud,\r\ndubbo等有深入研究 ,讲课生动透彻, 通俗易懂。\r\n"},
{"name": "王老师", "title": "高级讲师", "desc": "9年JAVA开发管理和教学,先后在STS（国外）、艾默生网络能源、华胜天成等担任过高级软件开发工程师、项目主管等职务。精通MySql、Oracle等数据库以及市场流行的web框架（ssm、spring全家桶等）。参与完成的项目主要有:移动国漫项目、短信平台、流量平台、海外物流等。"},
{"name": "王老师", "title": "高级讲师", "desc": "资深DevOps运维开发工程师，10年以上Linux平台开发与大型项目架构经验。精通C/C++，Shell，PHP，Python等编程语言以及MySQL、Oracle、SQLServer等关系型数据库。热衷Linux技术的解决方案，上课风趣幽默，语言通俗易懂。"},
{"name": "龙老师", "title": "高级讲师", "desc": "首席架构师、高级讲师、大米运维课堂创始人。曾于CBS、Opera、探探等知名企业担任首席架构师。4年开发经验，11年运维架构师经验，技术范畴涉及运维所有相关领域，设计维护过10000+服务器集群架构，讲课幽默诙谐。"},
{"name": "侯老师", "title": "高级讲师", "desc": "运维高级讲师、DBA先后在中国电信等多家500强企业担任运维工程师、数据库DBA。5年以上运维与数据库管理经验，多次参与电信数据库异地容灾、数据迁移、升级等项目。3年教学经验，授课中特别注重培养学生学习的思路及分析解决问题的能力，深受学生喜爱!"},
{"name": "王老师", "title": "高级讲师", "desc": "多年企业一线运维工作经验，维护过500+服务器集群架构，熟悉Web企业集群架构，对自动化部署，服务器监控有深入的研究，精通Nginx、Tomcat、Git、Nagios、Zabbix、Ansible、MySQL、LVS等技术，喜欢开源技术，上课诙谐幽默，有激情!"},
{"name": "裴老师", "title": "高级讲师", "desc": "10年影视行业从业经验，精通CG制作行业全流程。\r\n曾就职于中央电视台制作单位，参与多部三维动画和CCTV影视包装项目，对三维技术和影视后期合成技术有深入研究，精通AE，C4D影视包装。\r\n"},
{"name": "孙老师", "title": "高级讲师", "desc": "5年影视行业从业经验，精通剪辑包装和影视后期合成。曾就职于大型企业宣传片制作公司和一线互联网上市公司。为海尔集团，海信集团，中国中铁集团等等大型企业提供服务，项目经验丰富。\r\n"},
{"name": "吴老师", "title": "高级讲师", "desc": "8年影视行业从业经验，精通栏目包装、影视后期合成。广告、宣传片导演。曾先后就职于中央新影、光线传媒，天工映画，中视北方等专业影视制作机构。服务客户有三星、华润、中国平安，国家电网等几十家公司。\r\n"},
{"name": "殷老师", "title": "高级讲师", "desc": "曾任大型上市公司新媒体运营总监，网络营销经理；负责品牌策划、用户活动运营等平台级产品运营。参与过多个冷启动公众号运营项目，策划出多个10W+内容。曾两个月内从冷启动增粉20万。参与编著出版书籍《搜索引擎营销推广》，深受读者青睐。"},
{"name": "高老师", "title": "高级讲师", "desc": "网络营销实战型专家，11年互联网营销及网站运营经验，4年网络营销服务团队管理经验。精通社会化媒体及新媒体营销，曾服务过数百家B2B门户网站。擅长运用互联网思维，辅以经典案例，以理论+实践深入浅出的授课。"},
{"name": "吴老师", "title": "高级讲师", "desc": "互联网行业从业十多年，曾任网站和电子杂志主编、市场营销主管、媒介主管、文案策划主管，文案策划、市场营销、网站运营和媒介监测经验丰富。曾主导腾讯游戏发布、腾讯动漫整体媒介营销、设计行业大赛策划和运营。"},
{"name": "张老师", "title": "高级讲师", "desc": "多年互联网产品运营策划经验，掌握产品各环节运营方法。曾参加两家初创公司，擅长产品的冷启动，从0到1做用户精细化运营。曾以用户为中心，满足对产品的需求，使产品在三个月内用户增长23万。"},
{"name": "张老师", "title": "高级讲师", "desc": "从业互联网产品运营推广多年，掌握各渠道推广规则及方法，有成功案例。全面了解互联网运营之道，擅长以数据为驱动的精细化运营，并以用户为中心制定运营战略与运营目标。"},
{"name": "崔老师", "title": "高级讲师", "desc": "多年互联网新媒体运营经验，掌握各推广渠道及推广方式方法，多次为中小型企业和事业单位制定运营战略及新媒体渠道推广方案等 。曾运营多个超百万级粉丝公众平台，十万加爆文的缔造者，并多次成功针对用户策划过营销活动。"},
{"name": "朱老师", "title": "高级讲师", "desc": "多年互联网新媒体运营经验，具有多个行业从0到1搭建新媒体矩阵案例，掌握各渠道推广规则及方法。曾运营多个超百万级粉丝公号平台，十万+爆款缔造者，曾多次在2月内打造不同行业的百万抖音粉丝账号，用极低的成本获得客单价。"},
{"name": "骆老师", "title": "高级讲师", "desc": "前金山WPS Office 新媒体负责人，原一招新媒体教学主管、课程研究、王牌讲师，8年互联网、7年新媒体运营。一招新媒体北京大学万人课发起人，《一招成名》策划。金山8000余万量级新媒体矩阵统筹；0到200万搭建、运营一招新媒体社群。金山新媒体一年销售额增长125%。"},
{"name": "王老师", "title": "高级讲师", "desc": "致力于网站策划运营、网络营销推广SEM/SEO、淘宝SEO、QQ群优化、数据分析等媒体方面的研究与实践五年有余，经验丰富。在多家高热度网站拥有个人专栏，为众多互联网从业人员提供免费职业辅导和工作指导，拥有忠实粉丝圈，口碑在业界广为人知。"},
{"name": "梁老师", "title": "高级讲师", "desc": "7年互联网营销推广工作经验，对互联网+新营销有独到的见解和认知，曾为中国移动，中国电信，爱立信一线运营部进行营销培训，擅长以营销思维和锋利的创意解决问题。讲课风格循序渐进，让受训学员看得见、摸得着、体验得到的亲民教学，落到实处。\r\n"},
{"name": "王老师", "title": "高级讲师", "desc": "人民大学新闻传播学专业毕业，多年出版社新媒体采编经验，年产文字量20W+，有极强的文案及采编能力。2年上市公司新媒体运营总监经验，500强企业特约职业规划师。运营过百万级账号，熟练掌握各新媒体平台的推广及增长方法。"},
{"name": "李老师", "title": "高级讲师", "desc": "多年互联网实战经验，帮助10+家企业实现媒体矩阵搭建，擅长把握用户心理，策划执行活动近300场，创造了1000万+的业绩。熟练掌握各种推广渠道及推广方法，迅速提供新媒体版块解决方案，用互联网工具，达到推广营销的目的。\t"},
{"name": "李老师", "title": "高级讲师", "desc": "拥有10多年PHP开发和项目管理经验，先后主持开发长春互联网刷卡系统、台湾写作外包网、天外飞音、IVR语音系统等项目，热衷Linux技术的解决方案，擅长PHP、ASP.net、JavaScript、Vue前后端分离等，课程风趣幽默，通俗易懂，深受学生喜欢。\r\n"},
{"name": "张老师", "title": "高级讲师", "desc": "北京理工大学毕业、资深PHP开发工程师、多年PHP项目开发和项目管理经验，曾主持开发电子商城、互联网金融、即时通讯、企业服务等多种大型项目。技术擅长PHP、Javascript、jQuery、Linux、Mysql，熟悉ThinkPHP、Laravel、Swoole、YII、YAF等PHP框架。"},
{"name": "吴老师", "title": "高级讲师", "desc": "有多年PHP开发和项目管理经验，开发过聊天在线系统、客户关系管理系统、智能SEM竞价系统等项目，精通PHP、mysql、linux、javascript、html5、css3等主流的web开发技术，讲课风格风趣幽默有激情，善于启发学生自我思考来解决问题。"},
{"name": "马老师", "title": "高级讲师", "desc": "资深PHP开发工程师，中南大学软件工程毕业。多年web开发和教学工作，参与多个web项目的开发，带领团队开发公司官网、基于ERP的经销商门户网站、在线教育管理平台、资源管理平台、大中型电子商务系统等。"},
{"name": "康老师", "title": "高级讲师", "desc": "php高级工程师，多年开发和教学经验，参与开发过PMS系统，企业平台，电子商务系统。曾独自开发储值卡管理系统，用户签名管理系统。精通php、JavaScript、CSS3.0、HTML5、Mysql、SQL Server、Oracle，Java。"},
{"name": "杨老师", "title": "高级讲师", "desc": "php高级工程师，曾在纳斯达克上市公司担任项目经理，带领团队负责集团核心项目的研发工作。项目有门户网站、智能招商管理系统、企业自用HRM等。精通php、javascript脚本语言， ThinkPHP、Laravel、jQuery等主流开源框架、服务端、数据接口等有深入研究。"},
{"name": "张老师", "title": "高级讲师", "desc": "Web工程师，全栈开发，多年大型项目开发经验，多年一线教学经验。对PHP、JavaScript、NodeJS、MySQL数据库、Linux系统架构、NoSQL缓存与集群等技术有深入研究。教学风趣幽默有激情，注重培养学生的学习能力。"},
{"name": "王老师", "title": "高级讲师", "desc": "毕业于中国科学院大学，硕士学位，有国外留学经历。拥有多年的产品从业经验，从事行业包括\"互联网金融\"、\"互联网教育\"、\"电商\"等领域。有产品运营、数据分析、销售管理等工作经验，对于产品设计、体验、交互、项目管理等有很强的理解。善于引导学生思考，激发学习兴趣。"},
{"name": "吴老师", "title": "高级讲师", "desc": "九年互联网产品实战经验，涉足教育、电商、工具、内容等多个领域，曾担任大型电商产品、大型教育机构CRM系统负责人，负责项目整体操盘、竞品分析、运营规划、团队建设等工作。对产品的设计、运营规划拥有较深入的理解。"},
{"name": "张老师", "title": "高级讲师", "desc": "互联网从业近九年，曾在知名互联网公司担任产品线负责人，负责多个大型产品，擅长企业后台产品的建设，在系统架构、规划、设计方面有诸多涉猎；多年教学经验，对教学认真负责，善于激发学生潜能。\t\t\t\t\t\t"},
{"name": "孙老师", "title": "高级讲师", "desc": "互联网产品经理导师，对产品的设计、交互、用研拥有资深造诣和分享经验，拥有多年互联网工作经验，学员遍布国内知名互联网企业产品团队，曾担任大型移动电商产品负责人，负责前期市场调研、竞品分析、运营规划、团队建设等工作。"},
{"name": "李老师", "title": "高级讲师", "desc": "拥有十年产品经理行业从业经验，组织开发的产品帮助公司实现上市，在企业CRM、企业数据服务、电子商务、移动互联社交等产品方面都有成功作品。有多年的教学经验，善于营造愉快活跃的课堂气氛。"},
{"name": "周老师", "title": "高级讲师", "desc": "5年互联网及4年产品行业经验，曾任职于金融、教育、媒体等诸多领域，参与市级国家医保平台搭建，参与百度2016奥运会项目组建设，主导市级电视台媒体矩阵平台搭建，曾担任多家企业产品及运营总监，独立搭建省会城市产品部，擅长产品运营、产品逻辑架构和品牌搭建。"},
{"name": "刘老师", "title": "高级讲师", "desc": "二十年互联网从业经验，有多年的开发和产品工作经验，从事过门户网站、社交平台、电子商务、互联网金融等多个领域，并有多个成功作品。参与过建行、平安、中细腻等多个大型企业集团的互联网平台产品策划。擅长需求分析、商业模式设计、产品逻辑设计和功能规划。"},
{"name": "陈老师", "title": "高级讲师", "desc": "互联网行业从业近十年，从事过开发和产品工作。任职过跨境电商、社交、内容付费、早教等诸多领域，其中不乏路联网独角兽企业，同时在C端和B端产品均有多年实战经验。擅长产品战略规划、产品设计、交互设计、数据分析等方向。"},
{"name": " 金老师", "title": "高级讲师", "desc": "7年互联网产品从业经验，涉足金融、社交、工具、内容等多个领域，策划过多款百万级用户的产品。擅长产品策划、产品运营、项目管理、数据分析等，对产品策划和产品运营有深入的理解。"},
{"name": "邢老师", "title": "高级讲师", "desc": "10年Linux平台互联网开发经验，业界资深讲师。精通Linux内核开发、内核系统移植、ARM SOC体系结构设计、C/C++、Python、Javascript、LISP、ARM/X86汇编等编程语言，全栈工程师对计算机原理从上到下融会贯通。"},
{"name": "王老师", "title": "高级讲师", "desc": "毕业于山东大学，计算机硕士。具有10年项目开发、项目管理经验，任事业部技术总监，长期一线项目经理。主持开发过的项目涉及银行、政府等应用领域。多年企业内训培训师，讲课深入浅出，深受学生和企业员工的好评。"},
{"name": "彭老师", "title": "高级讲师", "desc": "精通Linux、C/C++、Python语言，多年从事服务器端编程经验，曾负责大型互联网公司的Web后台、数据采集系统、企业OA、某有声影集等项目。对实现分布式系统的高可用和负载均衡有深入研究，乐于专研分享，授课风趣，热爱教育事业。"},
{"name": "原老师", "title": "高级讲师", "desc": "北京大学电子与通信工程硕士, 多年开发经验,熟悉web后端,移动端, 大数据, 机器学习等技术, 精通java python等常用开发语言,在多家软件公司担任高级工程师, 项目经理, 有新浪微博,中新网新闻发布系统等多个大型项目经验。"},
{"name": "刘老师", "title": "高级讲师", "desc": "从事互联网项目开发管理多年，熟悉html、css，精通jquery.js，对于服务器与前端均有深入研究。上课幽默，深入浅出，将枯燥的知识以通俗的方式展现，深受学生好评。"},
{"name": "何老师", "title": "高级讲师", "desc": "担任过金融工场, 网信理财, 糖护科技等公司的核心开发工程师,熟练掌握移动端python,java后端开发技巧,mysql,sqlite数据库开发,带领过的项目有<>,<>,<>,<><>等,授课认真负责,思路清晰。"},
{"name": "陈老师", "title": "高级讲师", "desc": "曾在夏普担任技术组长，擅长数据分析，大数据挖掘，精通java，python等流行开发语言。授课灵活，幽默风趣，深入浅出。"},
{"name": "张老师", "title": "高级讲师", "desc": "硕士研究生学历，具有多年的编程工作经验。研究生期间主要研究算法优化，熟悉常用算法模型底层原理。做过数据挖掘，推荐系统等相关工作。专注于人工智能、机器学习、深度学习相关方面的应用研究。授课幽默风趣，注重学员反馈吸收。"},
{"name": "陈老师", "title": "高级讲师", "desc": "计算机专业毕业，多年IT教育培训及多年开发经验，精通Python、C、OC、Swift等编程语言，主导过多个项目开发，社交、新闻、购物等APP和后端领域，注重移动端与后台接口交互体验。授课思路清晰明了，通俗易懂。"},
{"name": "牛老师", "title": "高级讲师", "desc": "多年软件开发与It教育培训经验，精通 python、C/C++、Linux系统编程。熟悉常见的数据库系统，熟悉 HTML/css/js 等前端技术。具有高度的责任心，授课思路清晰，注重培养学生的学习能力，深受学生好评。"},
{"name": "郭老师", "title": "高级讲师", "desc": "多年软件开发与教学经验，精通Python、Swift等编程语言，曾就职于金融界、精友集团，参与爱投顾，太平车险等项目开发。授课风格通俗易懂、思路清晰、接地气，注重培养学生独立解决问题的能力，对待学生耐心负责。"},
{"name": "史老师", "title": "高级讲师", "desc": "多年的软件开发与IT教学经验,精通C/C++,Python、Java等开发语言.从事金融,电商类后端开发多年,对后端开发有深入研究 .授课认真细致,由浅入深,注重培养学生的学习能力和解决问题的能力。\t"},
{"name": "赵老师", "title": "高级讲师", "desc": "多年开发与IT教学经验，精通Python、MySQL、HTML、CSS、JavaScript等编程语言。技术纯熟，项目经验丰富。授课风趣幽默，以不同的授课风格打破代码课程对学生的常规束缚，引导不同基础的学生日有所长。"},
{"name": "郭老师", "title": "高级讲师", "desc": "具有多年的软件开发经验和教学经验。授课风格幽默风趣有激情，逻辑清晰，对知识点讲解深入浅出，通俗易懂，深受学生喜爱。被学生封为‘例子王’。精通C语言，Python, Java, Objective-C, Swift等编程语言。"},
{"name": "刘老师", "title": "高级讲师", "desc": "踏足软件开发多年，曾负责中国银行软件中心OA办公系统的设计与开发，曾担任某汽车互联网公司移动开发主管。精通html，css，js等前端技术；善于以实战驱动教学，注重课堂气氛，理论与实践紧密结合。"},
{"name": "齐老师", "title": "高级讲师", "desc": "多年软件开发经验和丰富的教学经验,精通Python、PHP、Objective-C、Swift、MySQL等编程语言,主导并开发过海南移动惠生活、庆红汽车交易发布平台、微课网在线教育平台等项目,讲课富有激情、条理清晰，注重培养学生的学习能力。"},
{"name": "盛老师", "title": "高级讲师", "desc": "具有多年软件开发经验，熟悉Java、Python、MySQL、html、css等编程语言，从事后端开发期间，搭建过多个Web网站的后端框架。具有高度的责任心，授课思路清晰，通俗易懂。"},
{"name": "范老师", "title": "高级讲师", "desc": "多年软件开发与IT教育培训经验，精通C、python、OC、Swift、JavaScrip等语言。有丰富的企业网站、移动APP开发经验。曾就职于BOSS直聘，参与BOSS直聘、看准网等项目开发。授课风格幽默诙谐，通俗易懂，注重学生独立解决问题能力的养成。"},
{"name": "江老师", "title": "高级讲师", "desc": "多年研发经验和教学经验。精通Linux操作系统各种应用开发，精通C/C++语言编程，对GTK+、Qt、MFC等图形界面编程有深入研究，精通web开发、精通网络编程，交换机、路由器、TCP/IP协议栈等。拥有丰富授课及培训技巧，讲课幽默生动有趣，深入浅出。"},
{"name": "孔老师", "title": "高级讲师", "desc": "具有多年的软件开发经验，从事过后端服务器开发，WEB网站开发，具有高度的责任心。精通Python、C/C++。曾任高级后端服务器开发工程师。"},
{"name": " 惠老师", "title": "高级讲师", "desc": "多年软件开发经验和丰富的教学经验，先后在多家公司担任团队技术负责人。熟悉Python、C、Objective-C、Swift等编程语言,带领团队开发出《利安社区》《荣华果园》《爱遇》《WinShop》等。授课风趣幽默，善于引导学生主动思考问题。\r\n"},
{"name": "赵老师", "title": "高级讲师", "desc": "人工智能方向博士,微软AI课程导师; 曾任职于多家世界500强公司及无人机行业领先企业的研发部门;授课经验丰富,精准把握就业方向, 知识体系完备;开拓的国际视野,具有亚欧大陆、南北美洲等30余个国家的访学阅历。"},
{"name": "许老师", "title": "高级讲师", "desc": "十年Linux平台软、硬件开发经验，五年教学经验。拥有美国Intel多核多线程认证, ARM认证工程师资格证(AAE和AAME)。曾参与上海建设银行项目Unix安全及解决方案,263网络集团的大型企业邮箱系统开发。精通Linux内核驱动开发、C/C++、Python开发。"},
{"name": "丁老师", "title": "高级讲师", "desc": "五年软件开发经验，熟悉 HTML/CSS/JS语言，精通 Java、Android、Python 程序开发。主导过多款企业通讯软件开发，精通华为手机的固件开发。技术扎实，授课经验丰富，认真负责。"},
{"name": "陈老师", "title": "高级讲师", "desc": "曾供职于广发证券、谷居网等公司前端负责人。多年Web、H5移动端开发与教学经验。开发过个人版jQuery(zQuery)供各大开发者使用。擅长移动端、PC端开发性能优化，SEO搜索引擎优化，用户体验有较深见解。"},
{"name": "胡老师", "title": "高级讲师", "desc": "多年Linux平台开发经验，精通Python，c／c++。专注机器学习／人工智能，研究过统计学习理论，熟悉模型背后的数学原理。做过推荐系统、NLP以及图像识别，主攻DL在NLP上的应用。擅长开源库、框架在机器学习方面应用，讲课深入浅出。"},
{"name": "李老师", "title": "高级讲师", "desc": "具有多年软件开发经验，精通c/c++，python等编程语言，熟练掌握html，css，js等前端开发语言，精通linux服务器编程，对web网站开发有着深入的研究和理解，授课经验丰富，工作认真负责。"},
{"name": "杨老师", "title": "高级讲师", "desc": "多年软件开发经验，熟悉C/C++、Python等编程语言，熟悉linux系统编程，数据库等，精通Python爬虫开发、数据采集分析展示，精通selenium，appium自动化测试开发相关方面的。有丰富数据采集系统及分布式网络爬虫开发管理经验。"},
{"name": "张老师", "title": "高级讲师", "desc": "多年软件开发经验，掌握丰富的web和移动端研发技巧和教学经验，对C语言、JavaScript、ActionScript、Python、iOS和安卓开发等皆有所涉猎，熟悉跨平台开发和网络音视频会话等技术，曾参与@work,sohotask等产品的研发。"},
{"name": "王老师", "title": "高级讲师", "desc": "多年一线的运维工作经验，擅长linux运维、Web集群架构、云计算。作为中国区DevOps master,对自动化运维、Docker+kubernetes集群、云计算等主流的运维知识都有深入的研究。以轻松快乐的课堂气氛深受学员的青睐。"},
{"name": "谢老师", "title": "高级讲师", "desc": "多年软件开发与IT教育培训经验，精通Python、C/C++、MySQL编程语言.授课激情澎湃, 深入浅出，幽默风趣将枯燥的知识以通俗的方式展现，深受学生好评。"},
{"name": "张老师", "title": "高级讲师", "desc": "具有多年开发及教学经验，对C，OC，Swift，Python，及前端开发等技术都有涉猎。讲课风格细致深入，教学通俗易懂，认真细致又不失幽默，对待学生耐心负责。对学习方法，学生心理辅导也有非常独到的见解，乐于分享，经常给学生分享开发技巧。"},
{"name": "沈老师", "title": "高级讲师", "desc": "多年的软件开发经验与IT教育培训经验，担任物联网公司项目经理多年，精通Python、Java、Objective-C、Stm32等编程语言，主导过多个项目开发,智能垃圾分类系统，开源中国等项目，注重项目的整体设计。授课风格幽默诙谐，通俗易懂，善于引导学生主动思考问题。"},
{"name": "梅老师", "title": "高级讲师", "desc": "毕业于211院校,计算机专业,多年从事软件开发与测试工作,曾参与医疗,金融,购物等产品的开发,有丰富的P2P项目以及公司运营经验,熟悉公司开发流程,擅长Python、前端、iOS等编程开发。授课认真细致,通俗易懂,注重培养学生的学习能力。"},
{"name": "姚老师", "title": "高级讲师", "desc": "一线爬虫系统开发数据采集经验。熟悉html/css/javascript、jquery库、ajax等，精通python、golang。擅长Linux下Python爬虫开发、数据采集解析。对selenium、appium自动化有深入研究。"},
{"name": "张老师", "title": "高级讲师", "desc": "系统分析师，先后任职于Nortel，CIeNET, 爱立信等知名企业。传智播客资深讲师，十年授课经验，善于使用生活中的例子讲解技术原理，对ROS（机器人操作系统）和自动驾驶有一定开发经验。"},
{"name": "李老师", "title": "高级讲师", "desc": "传智播客资深讲师，近10年软件开发与IT教育经验，课堂轻松活跃，喜欢挖掘和启发学生潜在能力。横跨互联网产品、技术领域，熟悉嵌入式终端系统，对视觉识别处理及硬件传感器有一定开发经验。"},
{"name": "肖老师", "title": "高级讲师", "desc": "高级软件工程师，曾就职于知名软件公司，擅长程序中Artificial Intelligence架构，以及有限状态机的设计。传智播客资深讲师，四年授课经验，人工智能以及物联网开发经验丰富。"},
{"name": "唐老师", "title": "高级讲师", "desc": "软件架构师，曾从事华为系统应用的研发、联想定制软件的开发。对交互系统及Linux有深入研究。对机器视觉、运动控制、路径导航等有独到的见解。授课严谨清晰，注重以实例驱动课程。"},
{"name": "肖老师", "title": "高级讲师", "desc": "精通JAVA，JS，C/C++，Python，kotlin等编程语言，对程序系统架构设计有一定见解。传智播客资深讲师，授课内容丰富，逻辑清晰，注重培养学生编码习惯，引导学生编码思维，提升学生的动手能力。"},
{"name": "刘老师", "title": "高级讲师", "desc": "七年测试开发工作经验，在多家互联网公司担任测试负责人，擅长功能测试及接口测试， 拥有丰富的Web、移动端相关项目测试经验。擅长Jmeter，Appium自动化测试。授课风格严谨，课堂气氛活跃。"},
{"name": "李老师", "title": "高级讲师", "desc": "从事软件开发和软件测试开发10年，精通Java、Python编程语言，曾参与多个大型项目的研发工作。擅长Web项目开发、自动化测试及测试平台的搭建，教学风格严谨，认真负责。"},
{"name": "刘老师", "title": "高级讲师", "desc": "6年软件项目开发和测试经验；精通C、Python、oracle数据库、linux服务器、网络环境等；参与过多个大型项目的性能测试，擅长性能测试方案设计，性能测试结果分析以及调优。授课风格富有激情，有感染力，课堂气氛活跃，对学员认真负责，广受好评。"},
{"name": "许老师", "title": "高级讲师", "desc": "10年以上软件测试开发、质量管理、项目管理经验，熟练使用java、python开发语言，擅长功能测试、接口测试、自动化测试、性能测试等；具有丰富的教学经验，授课幽默风趣，能积极调动学员的积极性。"},
{"name": "项老师", "title": "高级讲师", "desc": "多年软件开发、测试经验，曾就职某大型股票软件公司。熟悉前后端技术，Python编程语言，擅长Linux操作系统、MySQL、Redis 等关系型与非关系型数据库，具有多种测试工具的使用经验。授课内容丰富，深入浅出，风格亲切自然。\r\n"},
{"name": "朱老师", "title": "高级讲师", "desc": "8年以上软件测试及项目管理经验，能熟练运用Python等编程语言，擅长功能测试，接口测试，及自动化测试，能够通过丰富的项目实战经验激发学生学习兴趣，培养学生独立思考和解决问题的能力。具有国家（高级）信息系统项目管理师认证、ACP认证。"},
{"name": "赵老师", "title": "高级讲师", "desc": "多年软件开发测试经验，熟悉软件开发和测试流程，精通 Java 以及 JavaEE 相关技术框架，精通 Oracle、MySQL、Redis 等数据库,\r\n具有多种测试工具的使用经验，擅长web自动化测试以及接口测试。"},
{"name": "李老师", "title": "高级讲师", "desc": "从事软件测试行业6年，先后任职于新东方，搜狐网，摩拜单车等知名互联网企业。擅长自动化测试领域：接口，Web端、移动端，擅长性能测试以及调优，教学风格思维严谨、方法灵活、宽松和谐，平易近人，认真负责。"},
{"name": "刘老师", "title": "高级讲师", "desc": "从事软件开发和软件测试10年, 熟悉软件项目开发和软件测试流程；熟悉多种测试环境搭建，熟练操作数据库，熟悉Java、Python、H5语言，对Web端自动化测试、接口测试有着丰富经验积累，并有丰富企培、校企合作专业领域培训经验。"},
{"name": "恩老师", "title": "高级讲师", "desc": "毕业于北京科技大学，先后在浪潮、中国数码集团、新网等知名企业担任测试开发工程师，具有丰富的大型软件系统测试经验。擅长性能测试，精通前后端技术，对性能调优有深入研究。授课风格风趣幽默，擅长用磁性的声线引领学生。"},
{"name": "石老师", "title": "高级讲师", "desc": "多年软件开发、测试经验，先后就职于华际信息系统、北京网易传媒等互联网企业。擅长功能测试及接口测试，熟悉Java、Python 及前端语言，具有丰富的教学经验，授课思路清晰。"},
{"name": "庄老师", "title": "高级讲师", "desc": "6年软件测试工作经验。曾在新三板上市公司担任测试负责人，有丰富的功能，性能，自动化测试，软件过程改进，测试团队建设与管理经验。对测试工作在企业协作中的效率与价值有着完整与清晰的认识。授课严谨，内容丰富，深受学员欢迎。"},
{"name": "查老师", "title": "高级讲师", "desc": "6年软件开发、测试经验。擅长功能测试及接口测试 ，精通Python、H5语言，对Web端自动化测试、接口测试、前端性能调优有丰富经验积累，具有多年教学经验，授课思路清晰，风趣幽默，有活力，对学生认真负责。"},
{"name": "李老师", "title": "高级讲师", "desc": "十余年一线美术设计经验，在交互设计、视觉传达以及美术史论等方向有深入研究。尤其在美术设计教学领域具备多年课程体系研发经验，对于设计类岗位需求动态具备敏锐洞察力，独立研发的艺术设计课程在多个高校被作为核心教学内容。"},
{"name": "高老师", "title": "高级讲师", "desc": "国内设计色彩搭配知名博主、Adobe认证讲师、十三年工作经验。擅长软件：Photoshop、Illustrator、CorelDRAW、Sketch、AxureRP、C4D、Principle等。服务过的部分知名客户：欧莱雅、万科地产、嘉顿食品、盛大游戏、宝马、阿里巴巴、新浪网、腾讯大粤网、福特汽车等。"},
{"name": "谭老师", "title": "高级讲师", "desc": "国内知名互联网设计师，设计联盟专访设计师。13年互联网设计经验，对视觉设计、平面设计、界面设计、体验设计、交互设计、动画制作、影视后期等诸多方面有深入研究，曾任某大型互联网企业设计总监，服务过多家世界五百强企业包括腾讯、阿里巴巴、小米、IBM、路虎汽车、通用汽车、宝马中国、海尔集团、芒果TV等。授课风格幽默风趣，通俗易懂，深入浅出，深受学员喜爱。"},
{"name": "王老师", "title": "高级讲师", "desc": "国内较早从事Web开发的一线技术人员。多年致力于HTML、CSS、JavaScript、jQuery等技术研究实践。精通W3C网页制作标准，对大中型网站的CSS组织见解深刻。著有教材《Web标准网页制作实例教程》，活跃在技术社区，有大量粉丝。"},
{"name": "王老师", "title": "高级讲师", "desc": "从事设计行业十余年，OSTA认证设计师，精通PS/AI/CDR/ID /PDF/DW/C4D/3DSMAX ,在广告，印刷，网页及UI设计领域有丰富的项目经验，有多年的教学经验，已成功将数千名不甘平庸者送上了设计师的岗位。"},
{"name": "杨老师", "title": "高级讲师", "desc": "拥有8年的设计经验，长期奋斗在北京电商服务设计岗位，曾为多家阿里巴巴商家做设计及运营培训，专注于天猫、淘宝、京东等第三方平台设计以及运营，精通PS/AI/ID/CDR/C4D等设计软件，风趣幽默的授课方式，对待学生认真负责，耐心引导条理清晰，深受学生的喜爱。"},
{"name": "刘老师", "title": "高级讲师", "desc": "毕业于东北师范大学美术学院视觉传达专业。9年设计及管理经验。美术功底深厚，擅长品牌形象设计、字体设计、LOGO设计及网页和包装设计。曾服务于中国疾控、塔塔数据、现代传播集团、新奥集团、太湖金张等国内外知名企事业单位。"},
{"name": "彭老师", "title": "高级讲师", "desc": "美术学院设计专业出身，精通C4D、3DSMAX、MAYA等三维软件，PS、AI、AE等平面与后期软件，拥有4年游戏行业设计与开发经验，三维建模与各种风格游戏贴图绘制，带领团队服务过各大牛游戏公司：腾讯、EA、育碧、盛大网络等知名世界500强企业。"},
{"name": "丛老师", "title": "高级讲师", "desc": "十五年的设计经验，涉及领域包括网站交互设计、品牌形象设计、广告设计以及工艺美术设计等，积攒了大量的设计实战、工艺规范、流程控管以及项目管理等经验。服务客户：腾讯、阿里巴巴、网易、新浪、宝马、爱普生、中信集团、华润集团、一方集团、同利集团、太和顾问、金鼠标数字营销、COVA等，执行及管理的项目多达数千项。擅长商业美术应用、建站交互分析、创意构思及表现。独具匠心的谐星式教育风格深受学生喜爱。"},
{"name": "刘老师", "title": "高级讲师", "desc": "从事设计行业8年多，对平面设计，电商设计，UI设计和网站设计有过多方面的研究，曾就职于河北联合资讯，长城汽车集团，唯众良品等多家互联网公司 从事教学工作后曾在蓝科教育科技有限公司，爱迪尔教育科技有限公司，千锋互联科技有限公司等进行教学工作 。"},
{"name": "陈老师", "title": "高级讲师", "desc": "十多年设计经验及授课经验，Adobe认证讲师；授课及实战经验丰富，讲课通俗易懂；幽默风趣；实战式教学，一切教学从工作出发，培训出了众多技术过硬的优秀设计师。对UI设计，网站设计、平面印刷广告、包装设计、VI设计等有着深刻的研究。"},
{"name": "梁老师", "title": "高级讲师", "desc": "毕业于广西师范大学美术学院，从事艺术设计类行业工作和研究十余年，在知名广告公司担任设计总监要职。项目实战经验丰富，主要从事品牌Ⅵ设计及推广、平面设计、电商设计，旅游项目策划等。15年投身教育事业，春风化雨、桃李争艳。服务企业中国电信、东盟博览会、中国重汽、恒大地产、云星地产等。"},
{"name": "岳老师", "title": "高级讲师", "desc": "毕业于天津美术学院。有五年互联网ui设计经验，曾就职于繁星优选，健康界，社区半径，担任ui ue设计师，独立负责移动端产品的视觉和交互。"},
{"name": "袁老师", "title": "高级讲师", "desc": "毕业视觉传达设计专业，8年设计工作经验。从事品牌设计、大型商业活动、互联网PC和移动端、金融、 地产、汽车、唱片、影视、教育等众多领域。主要服务公司有凤凰卫视、星美传媒、平安集团、 中坤集团、广州本田、江苏商会等。"},
{"name": "宋老师", "title": "高级讲师", "desc": "拥有十年的资深平面设计经验，精通PS/AI/ID等软件。擅长字体/包装/商标/Vi/海报等设计，曾服务于华为、联想、松下电气、东芝电脑、爱默生、GE医疗、中国国药集团、天津邦盛医疗集团、360安全卫士、中印友好协会等众多知名企业。"},
{"name": "杨老师", "title": "高级讲师", "desc": "美术专业出身，从事设计行业九年，曾在多家互联网一，二线公司任职，擅长互联网产品的交互以及视觉设计。曾服务于三一集团，徐工集团，宾利，沃尔沃等公司。注重用户体验，对用视觉语言解决产品业务问题有深刻的理解，注重学员设计思路的引导，以及学习习惯的培养。"},
{"name": "刘老师", "title": "高级讲师", "desc": "设计专业出身，曾就职于百度、搜狐、汽车之家等多家知名上市互联网企业，并担任设计负责人。主导参与过十亿级用户量以上的大型项目，对产品结构、流程、功能、界面、用户体验、交互功能等有深度研究，并具有完善的设计体系及方法论的实践经验。"},
{"name": "张老师", "title": "高级讲师", "desc": "从事设计行业6年，曾为百度、蒙牛、中国银行等知名大型企业开发移动端管理系统，注重用户体验、具备多年的网页与APP项目开发经验，曾在知名上市公司担任首席设计师，尤其对项目分解与真实工作场景教学方面有丰富的课程研发经验。"},
{"name": "王老师", "title": "高级讲师", "desc": "从事设计行业8年，曾任职于玖富理财、中国水网等多领域互联网公司，具有丰富的一线项目经验，对界面设计、交互设计、用户研究、视觉设计有深入研究，对学生态度真诚，从工作“刚需”角度授课。"},
{"name": "曾老师", "title": "高级讲师", "desc": "从事设计行业七年，精通多种设计软件。曾在广告公司担任设计师及设计总监。服务企业有深圳海洋局、招商地产、香港珠宝、华润集团等。12年投身教育事业，深受广大学员爱戴。"},
{"name": "许老师", "title": "高级讲师", "desc": "国内知名讲师，2015年加入传智播客。注重理论与实践结合，课堂气氛活跃，很多学员从公开课了解许老师课程之后，从全国各地来到传智播客，从而踏上高薪之路。曾服务、外包过国内外大型企事业单位，如：中国电信、蚂蚁金服、伯俊软件、义信电子商务等。名师寄语：“你负责努力，剩下的交给老师”。"},
{"name": "金老师", "title": "高级讲师", "desc": "9年专注于设计方向和教学研究工作，曾任多家设计公司首席设计师。对设计有独特的见解，具备丰厚的绘画经验。曾多次受邀大型活动、展会现场作画。受邀参与设计的单位有： cctv纪录片频道、湖南省人民政府、北京世通华纳控股集团、北京完美动力动画学院等"},
{"name": "方老师", "title": "高级讲师", "desc": "2003年进入设计行业，长期奋斗在广深莞等城市的一线设计和设计管理岗位。曾在深圳SML、创维电视、华润集团等公司担任设计师职位。09年进入培训行业，后担任东莞市成人文化技术学校设计学科教学总监。一直以“传道，授业，解惑，”作为自己的职业座右铭。"},
{"name": "廖老师", "title": "高级讲师", "desc": "早期在智能家居和跨境电商公司担任主管职位，负责产品的视觉设计和产品验收。曾兼任产品经理职务， 懂得绘画产品交互原型图和编写产品开发文档。后期在游戏公司担任主美职位，主要负责美术界面场景设计和项目管理，熟悉游戏编程，带领团队一起完成腾讯棋牌项目如：《欢乐斗地主》、《德州扑克》。擅长游戏设计、移动APP设计、手绘、网页设计与制作。对项目管理和产品分析有一定的经验。"},
{"name": "闫老师", "title": "高级讲师", "desc": "视觉传达设计专业，拥有七年的设计经验。精通photoshop、illusstrator，Axure等常用设计软件，熟练Html，CSS等前端技术。曾创办独立设计工作室，授课风格幽默，思路清晰。时常告诫学生莫忘做设计的那份初心，才能方得始终！"},
{"name": "杨老师", "title": "高级讲师", "desc": "13年互联网视觉设计经验。早期在各种建站公司担任网页设计师，负责各行业客户的网页、动画、代码，等设计；中期从事数字互动设计，带领团队拿下如华为、中兴、华润、TCL项目，期间团队作品荣获OneShow金铅笔奖;后期专注于智能硬件的APP设计。擅长电商、UI等视觉设计，对摄影颇有研究。网页设计师联盟专访设计师，小资风尚杂志专访摄影师，图虫网推荐摄影师，签约于各大图库。"},
{"name": "周老师", "title": "高级讲师", "desc": "前美图公司UI设计师负责月活量千万级产品界面设计，设计专业出身。曾深度参与国内一线知名公司的项目包括：腾讯QQ空间、搜狗输入法、万科企业产品、美的智能家居，有着丰富的跨平台、跨终端的互联网产品界面设计工作经验，擅长互联网产品用户体验设计，精通多种设计软件及产品动效设计。"},
{"name": "李老师", "title": "高级讲师", "desc": "10年互联网设计经验，插画专业毕业，从事设计领域品牌、广告、装帧、网页、UI等多方面。曾就职安天信息主导负责移动端杀毒软件的UI部分。带领团队完成了360旗下移动端自主APP奇酷相机和光谷联合控股家居APP梦想家UI视觉部分。对移动端有丰富UI设计经验。"},
{"name": "段老师", "title": "高级讲师", "desc": "前端开发工程师和软件开发工程师， 5年软件开发项目经验，精通网站前端设计和Html、JavaScript、CSS+DIV、Regular Expressions和Ajax以及客户端技术的使用。"},
{"name": "李老师", "title": "高级讲师", "desc": "多年大中型项目开发经验,曾就职于某大型外企，在软件开发和培训方面积累了丰富的经验,参与电商平台、特许行业CRM系统等项目，涉足跨平台技术解决方案、.Net、Node.js等平台。"},
{"name": "汤老师", "title": "高级讲师", "desc": "5年开发经验4年教学经验，精通web前端、Ajax、Linux、ThinkPHP、git、jQuery、Mysql、XML等,参与开发过楚楚街电子商务、教育考试系统、金农热线等项目。讲课沉稳、条理清晰，善于使用现实生活中的现象描述编程，启发学生。"},
{"name": "赵老师", "title": "高级讲师", "desc": "Web前端工程师，具有多年Web开发经验，喜爱并热衷于前端开发，熟悉并掌握主流的前端开发技术，特别在移动开发方面积累了丰富的经验，同时熟悉PHP、NodeJS等服务端技术，具备“全栈开发”能力。Say less Do more!"},
{"name": "罗老师", "title": "高级讲师", "desc": "一个互联网老兵，在互联网与软件开发领域的前后端都有多年的研发和教学经验。曾在农业部信息中心和用友公司服务，参与或主持多个web应用或网站项目的研发工作。精通web前端各主流技术，PHP后端各主流技术和数据库技术。"},
{"name": "周老师", "title": "高级讲师", "desc": "2011年参加工作至今，一直在计算机领域工作，从事过Java开发、Android开发、前端开发，全栈开发，从2015年起成为一名讲师，从事前端的教学及相关课程技术研究工作。\t\t\t\t\t\t"},
{"name": "凡老师", "title": "高级讲师", "desc": "web前端开发工程师，软件设计师，具有多年web开发经验，曾供职于京东商城。对后端技术如php，nodejs，数据库也有一些了解，对如何写出好代码和教出好学生有一些认识，期待与你同行。\t\t\t\t\t\t"},
{"name": "高老师", "title": "高级讲师", "desc": "八年团队研发经验，前后端各类技术均有涉猎，前后研发了多个平台级项目产品，曾担任某大型软件企业的前端架构师,负责公司平台级应用开发工具的设计和架构,精通OTO类移动开发业务,曾担任某大型餐饮软件公司前端负责人,负责公司移动端产品设计和技术架构的开发工作。"},
{"name": "刘老师", "title": "高级讲师", "desc": "拥有多年开发教育经验，精通html、css、JavaScript、jQuery、PHP、mysql等技术，在教学过程中认真，知识点讲解细腻，对待学生要求严格，同时风趣幽默的授课风格可以让每位学子更加深刻的记忆内容！\t\t\t\t\t\t\t"},
{"name": "刘老师", "title": "高级讲师", "desc": "多年前后端软件开发和教学经验，精通前端技术体系，对node、微信小程序、Vue、React等有深入研究。授课思路清晰，深入浅出，擅长重难点问题的分化讲解，注重培养学生独立思考与解决业务需求的能力，热衷于把最新最牛最实用的技术传递给每一位学生。"},
{"name": "苏老师", "title": "高级讲师", "desc": "15年开发经验，精通JavaScript、微信小程序、Vue、Js、React、React Native、php等前后端技术，主导开发了科威特石油系统、宝马供应链系统等大型项目。熟悉项目开发中的前后端交互，擅长将工作经验融入教学实践，以项目驱动教学，风格幽默诙谐，深受学生喜欢。"},
{"name": "孙老师", "title": "高级讲师", "desc": "14年教学、开发、管理工作经验，擅长Vue、PHP、Linux、JavaScript、Mysql、jQuery、MongoDB等技术。\r\n曾就职于北京多家上市公司，参与开发过的项目有某某医院生化管理系统、中国科研所细菌培养系统、\r\n全国幼儿园健康系统、公司财务、CRM等多个大中型项目，授课特点：风趣幽默、耐心细致、认真负责"},
{"name": "吴老师", "title": "高级讲师", "desc": "从事开发多年，精通JavaScript、Ajax、jQuery、VUE等前端技术以及nodeJS、php、mySQL等后端技术，对技术充满热情。在教学方面喜欢“较真”，对知识的细节极为看重，秉承传智播客务实的理念，认真对待每一节课，让传智学子不留遗憾！"},
{"name": "王老师", "title": "高级讲师", "desc": "十年前端与Java项目研发与教学经验，历任系统架构师、项目经理等职位，曾主导研发安防、邮件、电商、ERP等相关领域项目，专注于Node.js全栈，前端工程化，React、Vue、小程序、移动App等前端相关技术栈研究并具备丰富的项目架构与研发经验，热衷于技术研究与课程设计。"},
{"name": "苏老师", "title": "高级讲师", "desc": "精通XHTML/HTML5，Css/Css3,Javascript，响应式等前端技术，擅长解决兼容性问题，深入掌握jQuery，Bootstrap，Less，Sass等技术框架。包括移动端微信商城、PC端商城、系统后台界面、官网展示，熟悉前后端数据交互流程。"},
{"name": "王老师", "title": "高级讲师", "desc": "6年互联网行业从业经验，曾任职国内某著名电信运营商工程师一职。精通html、css、js、jquery、HTML5、Ajax等各种前端技术及React、AngularJS等流行框架，熟悉后台语言.NET。"},
{"name": "沈老师", "title": "高级讲师", "desc": "多年前端工作经验， 独立架构\"兜世宝\"项目pc端及移动端，多家企业前端规范制定者 。 并参与“星通北斗”，“办公24”，“淘美人”，“项目后台管理系统”等大型项目开发。 精通html、 css、 Js、 jquery 、ajax 。 并对html5 和响应式布局有独到见解。"},
{"name": "李老师", "title": "高级讲师", "desc": "多年软件开发和教学经验， 擅长前端、Java、Android开发、网络信息安全、Linux服务器运维等； 熟悉Node.js平台、 Vue.js等框架；掌握MySQL、Oracle、SqlServer等知识；参与过《Linc日本留学项目》、《InTestCar车辆远程管理服务平台项目手机客户端》等。"},
{"name": "潘老师", "title": "高级讲师", "desc": "狂热型技术控，先后涉足网络安全，软件/网站开发，移动应用开发等领域。精通C\\C++、OC、C#、JavaScript、Python等多项开发语言。拥有丰富的企业级应用架构以及开发经验。授课风格风趣幽默，注重与学生的沟通，深得学生好评。"},
{"name": "彭老师", "title": "高级讲师", "desc": "师范大学计算机科学与技术专业毕业。多年互联网和移动互联网开发经验，参与开发项目：广东省移动物流信息管理系统、深圳移动配送一体化平台、深圳移动领导视窗、珠海移动领导视窗等。在移动端主持开发《广东省移动物流信息管理系统-PDA端》等。"},
{"name": "谢老师", "title": "高级讲师", "desc": "多年互联网项目开发经验，曾在CSDN担任核心开发工程师，对前后端技术都有涉猎和研究，熟悉Python、PHP、NodeJs，精通html/css/JavaScript、jquery库、Ajax等，热爱研究技术。上课语言通俗易懂、对学生平易近人，认真负责！"},
{"name": "江老师", "title": "高级讲师", "desc": "多年软件开发经验和教学经验，精通html，css，js,asp.net等编程语言和数据库系统。深入研究流行框架bootstrap,ligerui,easyui等前端框架，在js面向对象上有很深的造诣。"},
{"name": "刘老师", "title": "高级讲师", "desc": "后端开发出身，曾在金和软件参与大型SOA项目开发；后入职国美集团旗下，负责前端开发工作。基础扎实，深入原理。热爱技术，喜欢读书，看过大量有关前端方面的书籍。\r\n为人友善，知识面广泛。"},
{"name": "伍老师", "title": "高级讲师", "desc": "资深移动互联软件开发工程师。从事移动互联开发6年，从事教学工作三年。熟悉Windows Phone, iOS等平台的应用级开发。参与项目：广东省大学生就业服务平台，长沙市某建材交易信息网，广州市某大型地产手机信息交易平台。"},
{"name": "胡老师", "title": "高级讲师", "desc": "从事软件开发工作多年，涉及.Net、HTML5、Unity3d、IOS等平台，曾参与乌龟猜猜,敲打乐敲你妹等跨平台游戏项目的开发，之后投身教育行业,授课过程中擅长使用图片、动画把知识点化繁为简,深受学员喜爱。"},
{"name": "吕老师", "title": "高级讲师", "desc": "兼具前后端开发经验，熟练使用Python/java/javascript/HTML/CSS等语言解决实际开发问题，对Linux系统有自己的独到理解。熟悉vue/angular/jQuery等前端框架，spring/springMVC/mybatis/flask/scrapy等后端框架。"},
{"name": "李老师", "title": "高级讲师", "desc": "2006年接触使用PHP, 入行10余年， 热爱教育事业, 于2013年在华师进修教育心理学, 对于培养学员的学习方法, 激发学习兴趣有独到的见解； 擅长Linux系统与网络协议, 讲课通俗易懂, 对主流框架ThinkPHP/Yii/Laravel有深入的研究，著有知乎Laravel专栏\r\n。"},
{"name": "王老师", "title": "高级讲师", "desc": "多年软件开发和实践教学经验，擅长HTML、CSS、JavaScript、PHP、Mysql优化、Wechat 、PHP主流框架、开源产品二次开发等。曾在多家大中型公司任职，带领团队参与开发公司官网、大中型电子商务网站、大客户管理系统、OA办公系统等。 \r\n授课轻松幽默、由浅入深。"},
{"name": "王老师", "title": "高级讲师", "desc": "多年前端开发工作经验，精通JavaScript、DOM、JQuery、Ajax、node.js及一些流行框架vue等前端技术，在教学方面喜欢以实战方式来教学，对课程知识的细节极为看重，秉承传智播客用心上好每一节课，用心教好每一位学子的理念，让每个传智学子不留遗憾！"},
{"name": "肖老师", "title": "高级讲师", "desc": "拥有多年前后端开发管理经验，先后开发SNS互联网交友系统、汽车垂直电商项目等。\r\n热钟于全栈技术解决方案，擅长PHP、JavaScript、mysql数据库,Vue前后端分离技术。\r\n讲课深入浅出，通俗易懂，从学生的角度出发从已有知识推向未知知识点，将理论与实践相结合。"},
{"name": "信老师", "title": "高级讲师", "desc": "资深前端开发工程师，精通H5C3及移动开发，对前端主流框架vue,react等有深入的了解，具备全栈的能力，项目经验丰富。曾在携程等大型互联网公司负责移动端及混合开发。先后开发过携程全球购及其后台管理系统等多个大型项目。"},
